%YAML 1.1
%TAG !u! tag:unity3d.com,2011:
--- !u!1001 &5729453169050780538
PrefabInstance:
  m_ObjectHideFlags: 0
  serializedVersion: 2
  m_Modification:
    m_TransformParent: {fileID: 0}
    m_Modifications:
    - target: {fileID: 1098306806346624056, guid: 7040430caf2674f42b88078e26b00556,
        type: 3}
      propertyPath: m_Name
      value: ThrowKin_Object (25)
      objectReference: {fileID: 0}
    - target: {fileID: 1098306806346624059, guid: 7040430caf2674f42b88078e26b00556,
        type: 3}
      propertyPath: m_LocalPosition.x
      value: 47.552216
      objectReference: {fileID: 0}
    - target: {fileID: 1098306806346624059, guid: 7040430caf2674f42b88078e26b00556,
        type: 3}
      propertyPath: m_LocalPosition.y
      value: -4.7478094
      objectReference: {fileID: 0}
    - target: {fileID: 1098306806346624059, guid: 7040430caf2674f42b88078e26b00556,
        type: 3}
      propertyPath: m_LocalPosition.z
      value: 2.5585938
      objectReference: {fileID: 0}
    - target: {fileID: 1098306806346624059, guid: 7040430caf2674f42b88078e26b00556,
        type: 3}
      propertyPath: m_LocalRotation.x
      value: -0
      objectReference: {fileID: 0}
    - target: {fileID: 1098306806346624059, guid: 7040430caf2674f42b88078e26b00556,
        type: 3}
      propertyPath: m_LocalRotation.y
      value: -0
      objectReference: {fileID: 0}
    - target: {fileID: 1098306806346624059, guid: 7040430caf2674f42b88078e26b00556,
        type: 3}
      propertyPath: m_LocalRotation.z
      value: -0
      objectReference: {fileID: 0}
    - target: {fileID: 1098306806346624059, guid: 7040430caf2674f42b88078e26b00556,
        type: 3}
      propertyPath: m_LocalRotation.w
      value: 1
      objectReference: {fileID: 0}
    - target: {fileID: 1098306806346624059, guid: 7040430caf2674f42b88078e26b00556,
        type: 3}
      propertyPath: m_RootOrder
      value: 0
      objectReference: {fileID: 0}
    - target: {fileID: 1098306806346624059, guid: 7040430caf2674f42b88078e26b00556,
        type: 3}
      propertyPath: m_LocalEulerAnglesHint.x
      value: 0
      objectReference: {fileID: 0}
    - target: {fileID: 1098306806346624059, guid: 7040430caf2674f42b88078e26b00556,
        type: 3}
      propertyPath: m_LocalEulerAnglesHint.y
      value: 0
      objectReference: {fileID: 0}
    - target: {fileID: 1098306806346624059, guid: 7040430caf2674f42b88078e26b00556,
        type: 3}
      propertyPath: m_LocalEulerAnglesHint.z
      value: 0
      objectReference: {fileID: 0}
    - target: {fileID: 1098306806346624059, guid: 7040430caf2674f42b88078e26b00556,
        type: 3}
      propertyPath: m_LocalScale.x
      value: 0.4
      objectReference: {fileID: 0}
    - target: {fileID: 1098306806346624059, guid: 7040430caf2674f42b88078e26b00556,
        type: 3}
      propertyPath: m_LocalScale.y
      value: 0.4
      objectReference: {fileID: 0}
    - target: {fileID: 1098306806346624058, guid: 7040430caf2674f42b88078e26b00556,
        type: 3}
      propertyPath: m_Mass
      value: 10
      objectReference: {fileID: 0}
    m_RemovedComponents: []
  m_SourcePrefab: {fileID: 100100000, guid: 7040430caf2674f42b88078e26b00556, type: 3}
