%YAML 1.1
%TAG !u! tag:unity3d.com,2011:
--- !u!114 &11400000
MonoBehaviour:
  m_ObjectHideFlags: 0
  m_CorrespondingSourceObject: {fileID: 0}
  m_PrefabInstance: {fileID: 0}
  m_PrefabAsset: {fileID: 0}
  m_GameObject: {fileID: 0}
  m_Enabled: 1
  m_EditorHideFlags: 0
  m_Script: {fileID: 11500000, guid: 9f656617e6093064fbeafb9eeebea74c, type: 3}
  m_Name: FlamieConfiguration
  m_EditorClassIdentifier: 
  flamie: {fileID: 2244553173444486395, guid: 4603eb20e9c8e4f48b2ed009789b2d44, type: 3}
  flamiePointer: {fileID: 561189445624206645, guid: 7f9db6b60090e6b45b1aacf805da9bc9,
    type: 3}
  flamieSpeed: 20.5
