%YAML 1.1
%TAG !u! tag:unity3d.com,2011:
--- !u!114 &11400000
MonoBehaviour:
  m_ObjectHideFlags: 0
  m_CorrespondingSourceObject: {fileID: 0}
  m_PrefabInstance: {fileID: 0}
  m_PrefabAsset: {fileID: 0}
  m_GameObject: {fileID: 0}
  m_Enabled: 1
  m_EditorHideFlags: 0
  m_Script: {fileID: 11500000, guid: 8756b84c243096142811ea4579df06cf, type: 3}
  m_Name: Corner_Top_Right
  m_EditorClassIdentifier: 
  m_Sprite: {fileID: 0}
  m_Color: {r: 1, g: 1, b: 1, a: 1}
  m_Transform:
    e00: 1
    e01: 0
    e02: 0
    e03: 0
    e10: 0
    e11: 1
    e12: 0
    e13: 0
    e20: 0
    e21: 0
    e22: 1
    e23: 0
    e30: 0
    e31: 0
    e32: 0
    e33: 1
  m_InstancedGameObject: {fileID: 0}
  m_Flags: 1
  m_ColliderType: 1
  prefabTile: {fileID: 1283982009879331926, guid: 71818a7b0b4813749a4854653bb8dac1,
    type: 3}
  DreamWorld: {fileID: 7342312325242731805, guid: 581ace3a1628c414e9d18d3ea2804802,
    type: 3}
  RealWorld: {fileID: 6426287380801724641, guid: 40cf2dd4a43e7df4886e12f8e551fa37,
    type: 3}
