%YAML 1.1
%TAG !u! tag:unity3d.com,2011:
--- !u!1001 &3774484903142002685
PrefabInstance:
  m_ObjectHideFlags: 0
  serializedVersion: 2
  m_Modification:
    m_TransformParent: {fileID: 0}
    m_Modifications:
    - target: {fileID: 8443497625103038407, guid: 93ca14000e9f5ec46b6b9d9153d515e7,
        type: 3}
      propertyPath: m_Name
      value: Left
      objectReference: {fileID: 0}
    - target: {fileID: 8443497625103038406, guid: 93ca14000e9f5ec46b6b9d9153d515e7,
        type: 3}
      propertyPath: m_Offset.x
      value: 0
      objectReference: {fileID: 0}
    - target: {fileID: 8443497625103038406, guid: 93ca14000e9f5ec46b6b9d9153d515e7,
        type: 3}
      propertyPath: m_Size.x
      value: 1
      objectReference: {fileID: 0}
    - target: {fileID: 8443497625103038406, guid: 93ca14000e9f5ec46b6b9d9153d515e7,
        type: 3}
      propertyPath: m_Offset.y
      value: 0
      objectReference: {fileID: 0}
    - target: {fileID: 8443497625103038406, guid: 93ca14000e9f5ec46b6b9d9153d515e7,
        type: 3}
      propertyPath: m_Size.y
      value: 1
      objectReference: {fileID: 0}
    - target: {fileID: 8443497625103038406, guid: 93ca14000e9f5ec46b6b9d9153d515e7,
        type: 3}
      propertyPath: m_Material
      value: 
      objectReference: {fileID: 6200000, guid: a910b3bdda4297a4da40aa0a833d5de5, type: 2}
    - target: {fileID: 8443497625103038264, guid: 93ca14000e9f5ec46b6b9d9153d515e7,
        type: 3}
      propertyPath: m_LocalPosition.x
      value: 5.016
      objectReference: {fileID: 0}
    - target: {fileID: 8443497625103038264, guid: 93ca14000e9f5ec46b6b9d9153d515e7,
        type: 3}
      propertyPath: m_LocalPosition.y
      value: -3.574
      objectReference: {fileID: 0}
    - target: {fileID: 8443497625103038264, guid: 93ca14000e9f5ec46b6b9d9153d515e7,
        type: 3}
      propertyPath: m_LocalPosition.z
      value: 0
      objectReference: {fileID: 0}
    - target: {fileID: 8443497625103038264, guid: 93ca14000e9f5ec46b6b9d9153d515e7,
        type: 3}
      propertyPath: m_LocalRotation.x
      value: 0
      objectReference: {fileID: 0}
    - target: {fileID: 8443497625103038264, guid: 93ca14000e9f5ec46b6b9d9153d515e7,
        type: 3}
      propertyPath: m_LocalRotation.y
      value: 0
      objectReference: {fileID: 0}
    - target: {fileID: 8443497625103038264, guid: 93ca14000e9f5ec46b6b9d9153d515e7,
        type: 3}
      propertyPath: m_LocalRotation.z
      value: 0
      objectReference: {fileID: 0}
    - target: {fileID: 8443497625103038264, guid: 93ca14000e9f5ec46b6b9d9153d515e7,
        type: 3}
      propertyPath: m_LocalRotation.w
      value: 1
      objectReference: {fileID: 0}
    - target: {fileID: 8443497625103038264, guid: 93ca14000e9f5ec46b6b9d9153d515e7,
        type: 3}
      propertyPath: m_RootOrder
      value: 0
      objectReference: {fileID: 0}
    - target: {fileID: 8443497625103038264, guid: 93ca14000e9f5ec46b6b9d9153d515e7,
        type: 3}
      propertyPath: m_LocalEulerAnglesHint.x
      value: 0
      objectReference: {fileID: 0}
    - target: {fileID: 8443497625103038264, guid: 93ca14000e9f5ec46b6b9d9153d515e7,
        type: 3}
      propertyPath: m_LocalEulerAnglesHint.y
      value: 0
      objectReference: {fileID: 0}
    - target: {fileID: 8443497625103038264, guid: 93ca14000e9f5ec46b6b9d9153d515e7,
        type: 3}
      propertyPath: m_LocalEulerAnglesHint.z
      value: 0
      objectReference: {fileID: 0}
    - target: {fileID: 8443497625103038265, guid: 93ca14000e9f5ec46b6b9d9153d515e7,
        type: 3}
      propertyPath: m_Sprite
      value: 
      objectReference: {fileID: 0}
    - target: {fileID: 8443497625103038265, guid: 93ca14000e9f5ec46b6b9d9153d515e7,
        type: 3}
      propertyPath: m_WasSpriteAssigned
      value: 0
      objectReference: {fileID: 0}
    - target: {fileID: 8443497625103038265, guid: 93ca14000e9f5ec46b6b9d9153d515e7,
        type: 3}
      propertyPath: m_SortingLayerID
      value: 258005087
      objectReference: {fileID: 0}
    - target: {fileID: 8443497625103038265, guid: 93ca14000e9f5ec46b6b9d9153d515e7,
        type: 3}
      propertyPath: m_SortingLayer
      value: 2
      objectReference: {fileID: 0}
    - target: {fileID: 8443497625103038265, guid: 93ca14000e9f5ec46b6b9d9153d515e7,
        type: 3}
      propertyPath: m_SortingOrder
      value: 10
      objectReference: {fileID: 0}
    m_RemovedComponents: []
  m_SourcePrefab: {fileID: 100100000, guid: 93ca14000e9f5ec46b6b9d9153d515e7, type: 3}
