%YAML 1.1
%TAG !u! tag:unity3d.com,2011:
--- !u!1001 &361062880046769640
PrefabInstance:
  m_ObjectHideFlags: 0
  serializedVersion: 2
  m_Modification:
    m_TransformParent: {fileID: 0}
    m_Modifications:
    - target: {fileID: 8443497625103038407, guid: 93ca14000e9f5ec46b6b9d9153d515e7,
        type: 3}
      propertyPath: m_Name
      value: Angle_ (13) Variant
      objectReference: {fileID: 0}
    - target: {fileID: 8443497625103038264, guid: 93ca14000e9f5ec46b6b9d9153d515e7,
        type: 3}
      propertyPath: m_LocalPosition.x
      value: 0
      objectReference: {fileID: 0}
    - target: {fileID: 8443497625103038264, guid: 93ca14000e9f5ec46b6b9d9153d515e7,
        type: 3}
      propertyPath: m_LocalPosition.y
      value: 0
      objectReference: {fileID: 0}
    - target: {fileID: 8443497625103038264, guid: 93ca14000e9f5ec46b6b9d9153d515e7,
        type: 3}
      propertyPath: m_LocalPosition.z
      value: 0
      objectReference: {fileID: 0}
    - target: {fileID: 8443497625103038264, guid: 93ca14000e9f5ec46b6b9d9153d515e7,
        type: 3}
      propertyPath: m_LocalRotation.x
      value: 0
      objectReference: {fileID: 0}
    - target: {fileID: 8443497625103038264, guid: 93ca14000e9f5ec46b6b9d9153d515e7,
        type: 3}
      propertyPath: m_LocalRotation.y
      value: 0
      objectReference: {fileID: 0}
    - target: {fileID: 8443497625103038264, guid: 93ca14000e9f5ec46b6b9d9153d515e7,
        type: 3}
      propertyPath: m_LocalRotation.z
      value: 0
      objectReference: {fileID: 0}
    - target: {fileID: 8443497625103038264, guid: 93ca14000e9f5ec46b6b9d9153d515e7,
        type: 3}
      propertyPath: m_LocalRotation.w
      value: 1
      objectReference: {fileID: 0}
    - target: {fileID: 8443497625103038264, guid: 93ca14000e9f5ec46b6b9d9153d515e7,
        type: 3}
      propertyPath: m_RootOrder
      value: 0
      objectReference: {fileID: 0}
    - target: {fileID: 8443497625103038264, guid: 93ca14000e9f5ec46b6b9d9153d515e7,
        type: 3}
      propertyPath: m_LocalEulerAnglesHint.x
      value: 0
      objectReference: {fileID: 0}
    - target: {fileID: 8443497625103038264, guid: 93ca14000e9f5ec46b6b9d9153d515e7,
        type: 3}
      propertyPath: m_LocalEulerAnglesHint.y
      value: 0
      objectReference: {fileID: 0}
    - target: {fileID: 8443497625103038264, guid: 93ca14000e9f5ec46b6b9d9153d515e7,
        type: 3}
      propertyPath: m_LocalEulerAnglesHint.z
      value: 0
      objectReference: {fileID: 0}
    - target: {fileID: 8443497625103038265, guid: 93ca14000e9f5ec46b6b9d9153d515e7,
        type: 3}
      propertyPath: m_Sprite
      value: 
      objectReference: {fileID: -8383613427482827190, guid: 2e53f4c6f08bdd84b801a296e0c823d0,
        type: 3}
    - target: {fileID: 8443497625103038265, guid: 93ca14000e9f5ec46b6b9d9153d515e7,
        type: 3}
      propertyPath: m_WasSpriteAssigned
      value: 1
      objectReference: {fileID: 0}
    m_RemovedComponents: []
  m_SourcePrefab: {fileID: 100100000, guid: 93ca14000e9f5ec46b6b9d9153d515e7, type: 3}
