%YAML 1.1
%TAG !u! tag:unity3d.com,2011:
--- !u!1 &302423528043351215
GameObject:
  m_ObjectHideFlags: 0
  m_CorrespondingSourceObject: {fileID: 0}
  m_PrefabInstance: {fileID: 0}
  m_PrefabAsset: {fileID: 0}
  serializedVersion: 6
  m_Component:
  - component: {fileID: 4849425124784533263}
  - component: {fileID: 3522678916244060296}
  - component: {fileID: 6009138105415559344}
  m_Layer: 31
  m_Name: Layer1
  m_TagString: Untagged
  m_Icon: {fileID: 0}
  m_NavMeshLayer: 0
  m_StaticEditorFlags: 0
  m_IsActive: 1
--- !u!4 &4849425124784533263
Transform:
  m_ObjectHideFlags: 0
  m_CorrespondingSourceObject: {fileID: 0}
  m_PrefabInstance: {fileID: 0}
  m_PrefabAsset: {fileID: 0}
  m_GameObject: {fileID: 302423528043351215}
  m_LocalRotation: {x: -0, y: -0, z: -0, w: 1}
  m_LocalPosition: {x: 0, y: 0, z: 0}
  m_LocalScale: {x: 1, y: 1, z: 1}
  m_Children: []
  m_Father: {fileID: 4375931779404497145}
  m_RootOrder: 0
  m_LocalEulerAnglesHint: {x: 0, y: 0, z: 0}
--- !u!1839735485 &3522678916244060296
Tilemap:
  m_ObjectHideFlags: 0
  m_CorrespondingSourceObject: {fileID: 0}
  m_PrefabInstance: {fileID: 0}
  m_PrefabAsset: {fileID: 0}
  m_GameObject: {fileID: 302423528043351215}
  m_Enabled: 1
  m_Tiles:
  - first: {x: -14, y: -7, z: 0}
    second:
      m_TileIndex: 157
      m_TileSpriteIndex: 185
      m_TileMatrixIndex: 0
      m_TileColorIndex: 0
      m_ObjectToInstantiate: {fileID: 0}
      m_TileFlags: 0
      m_ColliderType: 0
  - first: {x: -13, y: -7, z: 0}
    second:
      m_TileIndex: 156
      m_TileSpriteIndex: 184
      m_TileMatrixIndex: 0
      m_TileColorIndex: 0
      m_ObjectToInstantiate: {fileID: 0}
      m_TileFlags: 0
      m_ColliderType: 0
  - first: {x: -11, y: -7, z: 0}
    second:
      m_TileIndex: 55
      m_TileSpriteIndex: 183
      m_TileMatrixIndex: 0
      m_TileColorIndex: 0
      m_ObjectToInstantiate: {fileID: 0}
      m_TileFlags: 0
      m_ColliderType: 0
  - first: {x: -9, y: -7, z: 0}
    second:
      m_TileIndex: 58
      m_TileSpriteIndex: 182
      m_TileMatrixIndex: 0
      m_TileColorIndex: 0
      m_ObjectToInstantiate: {fileID: 0}
      m_TileFlags: 0
      m_ColliderType: 0
  - first: {x: -7, y: -7, z: 0}
    second:
      m_TileIndex: 52
      m_TileSpriteIndex: 157
      m_TileMatrixIndex: 0
      m_TileColorIndex: 0
      m_ObjectToInstantiate: {fileID: 0}
      m_TileFlags: 0
      m_ColliderType: 0
  - first: {x: -5, y: -7, z: 0}
    second:
      m_TileIndex: 45
      m_TileSpriteIndex: 156
      m_TileMatrixIndex: 0
      m_TileColorIndex: 0
      m_ObjectToInstantiate: {fileID: 0}
      m_TileFlags: 0
      m_ColliderType: 0
  - first: {x: -4, y: -7, z: 0}
    second:
      m_TileIndex: 44
      m_TileSpriteIndex: 57
      m_TileMatrixIndex: 0
      m_TileColorIndex: 0
      m_ObjectToInstantiate: {fileID: 0}
      m_TileFlags: 0
      m_ColliderType: 0
  - first: {x: -2, y: -7, z: 0}
    second:
      m_TileIndex: 67
      m_TileSpriteIndex: 66
      m_TileMatrixIndex: 0
      m_TileColorIndex: 0
      m_ObjectToInstantiate: {fileID: 0}
      m_TileFlags: 0
      m_ColliderType: 0
  - first: {x: -1, y: -7, z: 0}
    second:
      m_TileIndex: 65
      m_TileSpriteIndex: 64
      m_TileMatrixIndex: 0
      m_TileColorIndex: 0
      m_ObjectToInstantiate: {fileID: 0}
      m_TileFlags: 0
      m_ColliderType: 0
  - first: {x: 2, y: -7, z: 0}
    second:
      m_TileIndex: 153
      m_TileSpriteIndex: 153
      m_TileMatrixIndex: 0
      m_TileColorIndex: 0
      m_ObjectToInstantiate: {fileID: 0}
      m_TileFlags: 0
      m_ColliderType: 0
  - first: {x: 3, y: -7, z: 0}
    second:
      m_TileIndex: 152
      m_TileSpriteIndex: 152
      m_TileMatrixIndex: 0
      m_TileColorIndex: 0
      m_ObjectToInstantiate: {fileID: 0}
      m_TileFlags: 0
      m_ColliderType: 0
  - first: {x: 4, y: -7, z: 0}
    second:
      m_TileIndex: 109
      m_TileSpriteIndex: 109
      m_TileMatrixIndex: 0
      m_TileColorIndex: 0
      m_ObjectToInstantiate: {fileID: 0}
      m_TileFlags: 0
      m_ColliderType: 0
  - first: {x: 6, y: -7, z: 0}
    second:
      m_TileIndex: 110
      m_TileSpriteIndex: 110
      m_TileMatrixIndex: 0
      m_TileColorIndex: 0
      m_ObjectToInstantiate: {fileID: 0}
      m_TileFlags: 0
      m_ColliderType: 0
  - first: {x: 8, y: -7, z: 0}
    second:
      m_TileIndex: 125
      m_TileSpriteIndex: 125
      m_TileMatrixIndex: 0
      m_TileColorIndex: 0
      m_ObjectToInstantiate: {fileID: 0}
      m_TileFlags: 0
      m_ColliderType: 0
  - first: {x: 9, y: -7, z: 0}
    second:
      m_TileIndex: 124
      m_TileSpriteIndex: 124
      m_TileMatrixIndex: 0
      m_TileColorIndex: 0
      m_ObjectToInstantiate: {fileID: 0}
      m_TileFlags: 0
      m_ColliderType: 0
  - first: {x: 11, y: -7, z: 0}
    second:
      m_TileIndex: 139
      m_TileSpriteIndex: 139
      m_TileMatrixIndex: 0
      m_TileColorIndex: 0
      m_ObjectToInstantiate: {fileID: 0}
      m_TileFlags: 0
      m_ColliderType: 0
  - first: {x: 12, y: -7, z: 0}
    second:
      m_TileIndex: 138
      m_TileSpriteIndex: 138
      m_TileMatrixIndex: 0
      m_TileColorIndex: 0
      m_ObjectToInstantiate: {fileID: 0}
      m_TileFlags: 0
      m_ColliderType: 0
  - first: {x: 13, y: -7, z: 0}
    second:
      m_TileIndex: 145
      m_TileSpriteIndex: 145
      m_TileMatrixIndex: 0
      m_TileColorIndex: 0
      m_ObjectToInstantiate: {fileID: 0}
      m_TileFlags: 0
      m_ColliderType: 0
  - first: {x: 14, y: -7, z: 0}
    second:
      m_TileIndex: 144
      m_TileSpriteIndex: 144
      m_TileMatrixIndex: 0
      m_TileColorIndex: 0
      m_ObjectToInstantiate: {fileID: 0}
      m_TileFlags: 0
      m_ColliderType: 0
  - first: {x: -14, y: -6, z: 0}
    second:
      m_TileIndex: 155
      m_TileSpriteIndex: 155
      m_TileMatrixIndex: 0
      m_TileColorIndex: 0
      m_ObjectToInstantiate: {fileID: 0}
      m_TileFlags: 0
      m_ColliderType: 0
  - first: {x: -13, y: -6, z: 0}
    second:
      m_TileIndex: 154
      m_TileSpriteIndex: 154
      m_TileMatrixIndex: 0
      m_TileColorIndex: 0
      m_ObjectToInstantiate: {fileID: 0}
      m_TileFlags: 0
      m_ColliderType: 0
  - first: {x: -11, y: -6, z: 0}
    second:
      m_TileIndex: 54
      m_TileSpriteIndex: 54
      m_TileMatrixIndex: 0
      m_TileColorIndex: 0
      m_ObjectToInstantiate: {fileID: 0}
      m_TileFlags: 0
      m_ColliderType: 0
  - first: {x: -9, y: -6, z: 0}
    second:
      m_TileIndex: 57
      m_TileSpriteIndex: 56
      m_TileMatrixIndex: 0
      m_TileColorIndex: 0
      m_ObjectToInstantiate: {fileID: 0}
      m_TileFlags: 0
      m_ColliderType: 0
  - first: {x: -7, y: -6, z: 0}
    second:
      m_TileIndex: 60
      m_TileSpriteIndex: 59
      m_TileMatrixIndex: 0
      m_TileColorIndex: 0
      m_ObjectToInstantiate: {fileID: 0}
      m_TileFlags: 0
      m_ColliderType: 0
  - first: {x: -5, y: -6, z: 0}
    second:
      m_TileIndex: 43
      m_TileSpriteIndex: 53
      m_TileMatrixIndex: 0
      m_TileColorIndex: 0
      m_ObjectToInstantiate: {fileID: 0}
      m_TileFlags: 0
      m_ColliderType: 0
  - first: {x: -4, y: -6, z: 0}
    second:
      m_TileIndex: 42
      m_TileSpriteIndex: 51
      m_TileMatrixIndex: 0
      m_TileColorIndex: 0
      m_ObjectToInstantiate: {fileID: 0}
      m_TileFlags: 0
      m_ColliderType: 0
  - first: {x: -2, y: -6, z: 0}
    second:
      m_TileIndex: 66
      m_TileSpriteIndex: 65
      m_TileMatrixIndex: 0
      m_TileColorIndex: 0
      m_ObjectToInstantiate: {fileID: 0}
      m_TileFlags: 0
      m_ColliderType: 0
  - first: {x: -1, y: -6, z: 0}
    second:
      m_TileIndex: 64
      m_TileSpriteIndex: 63
      m_TileMatrixIndex: 0
      m_TileColorIndex: 0
      m_ObjectToInstantiate: {fileID: 0}
      m_TileFlags: 0
      m_ColliderType: 0
  - first: {x: 2, y: -6, z: 0}
    second:
      m_TileIndex: 151
      m_TileSpriteIndex: 151
      m_TileMatrixIndex: 0
      m_TileColorIndex: 0
      m_ObjectToInstantiate: {fileID: 0}
      m_TileFlags: 0
      m_ColliderType: 0
  - first: {x: 3, y: -6, z: 0}
    second:
      m_TileIndex: 150
      m_TileSpriteIndex: 150
      m_TileMatrixIndex: 0
      m_TileColorIndex: 0
      m_ObjectToInstantiate: {fileID: 0}
      m_TileFlags: 0
      m_ColliderType: 0
  - first: {x: 6, y: -6, z: 0}
    second:
      m_TileIndex: 111
      m_TileSpriteIndex: 111
      m_TileMatrixIndex: 0
      m_TileColorIndex: 0
      m_ObjectToInstantiate: {fileID: 0}
      m_TileFlags: 0
      m_ColliderType: 0
  - first: {x: 7, y: -6, z: 0}
    second:
      m_TileIndex: 141
      m_TileSpriteIndex: 44
      m_TileMatrixIndex: 0
      m_TileColorIndex: 0
      m_ObjectToInstantiate: {fileID: 0}
      m_TileFlags: 0
      m_ColliderType: 0
  - first: {x: 8, y: -6, z: 0}
    second:
      m_TileIndex: 123
      m_TileSpriteIndex: 123
      m_TileMatrixIndex: 0
      m_TileColorIndex: 0
      m_ObjectToInstantiate: {fileID: 0}
      m_TileFlags: 0
      m_ColliderType: 0
  - first: {x: 9, y: -6, z: 0}
    second:
      m_TileIndex: 122
      m_TileSpriteIndex: 122
      m_TileMatrixIndex: 0
      m_TileColorIndex: 0
      m_ObjectToInstantiate: {fileID: 0}
      m_TileFlags: 0
      m_ColliderType: 0
  - first: {x: 11, y: -6, z: 0}
    second:
      m_TileIndex: 137
      m_TileSpriteIndex: 137
      m_TileMatrixIndex: 0
      m_TileColorIndex: 0
      m_ObjectToInstantiate: {fileID: 0}
      m_TileFlags: 0
      m_ColliderType: 0
  - first: {x: 12, y: -6, z: 0}
    second:
      m_TileIndex: 136
      m_TileSpriteIndex: 136
      m_TileMatrixIndex: 0
      m_TileColorIndex: 0
      m_ObjectToInstantiate: {fileID: 0}
      m_TileFlags: 0
      m_ColliderType: 0
  - first: {x: 13, y: -6, z: 0}
    second:
      m_TileIndex: 143
      m_TileSpriteIndex: 143
      m_TileMatrixIndex: 0
      m_TileColorIndex: 0
      m_ObjectToInstantiate: {fileID: 0}
      m_TileFlags: 0
      m_ColliderType: 0
  - first: {x: 14, y: -6, z: 0}
    second:
      m_TileIndex: 142
      m_TileSpriteIndex: 43
      m_TileMatrixIndex: 0
      m_TileColorIndex: 0
      m_ObjectToInstantiate: {fileID: 0}
      m_TileFlags: 0
      m_ColliderType: 0
  - first: {x: -11, y: -5, z: 0}
    second:
      m_TileIndex: 53
      m_TileSpriteIndex: 52
      m_TileMatrixIndex: 0
      m_TileColorIndex: 0
      m_ObjectToInstantiate: {fileID: 0}
      m_TileFlags: 0
      m_ColliderType: 0
  - first: {x: -9, y: -5, z: 0}
    second:
      m_TileIndex: 56
      m_TileSpriteIndex: 55
      m_TileMatrixIndex: 0
      m_TileColorIndex: 0
      m_ObjectToInstantiate: {fileID: 0}
      m_TileFlags: 0
      m_ColliderType: 0
  - first: {x: -7, y: -5, z: 0}
    second:
      m_TileIndex: 59
      m_TileSpriteIndex: 58
      m_TileMatrixIndex: 0
      m_TileColorIndex: 0
      m_ObjectToInstantiate: {fileID: 0}
      m_TileFlags: 0
      m_ColliderType: 0
  - first: {x: -5, y: -5, z: 0}
    second:
      m_TileIndex: 63
      m_TileSpriteIndex: 62
      m_TileMatrixIndex: 0
      m_TileColorIndex: 0
      m_ObjectToInstantiate: {fileID: 0}
      m_TileFlags: 0
      m_ColliderType: 0
  - first: {x: -4, y: -5, z: 0}
    second:
      m_TileIndex: 62
      m_TileSpriteIndex: 61
      m_TileMatrixIndex: 0
      m_TileColorIndex: 0
      m_ObjectToInstantiate: {fileID: 0}
      m_TileFlags: 0
      m_ColliderType: 0
  - first: {x: -3, y: -5, z: 0}
    second:
      m_TileIndex: 61
      m_TileSpriteIndex: 60
      m_TileMatrixIndex: 0
      m_TileColorIndex: 0
      m_ObjectToInstantiate: {fileID: 0}
      m_TileFlags: 0
      m_ColliderType: 0
  - first: {x: -1, y: -5, z: 0}
    second:
      m_TileIndex: 74
      m_TileSpriteIndex: 73
      m_TileMatrixIndex: 0
      m_TileColorIndex: 0
      m_ObjectToInstantiate: {fileID: 0}
      m_TileFlags: 0
      m_ColliderType: 0
  - first: {x: 1, y: -5, z: 0}
    second:
      m_TileIndex: 75
      m_TileSpriteIndex: 74
      m_TileMatrixIndex: 0
      m_TileColorIndex: 0
      m_ObjectToInstantiate: {fileID: 0}
      m_TileFlags: 0
      m_ColliderType: 0
  - first: {x: 4, y: -5, z: 0}
    second:
      m_TileIndex: 135
      m_TileSpriteIndex: 135
      m_TileMatrixIndex: 0
      m_TileColorIndex: 0
      m_ObjectToInstantiate: {fileID: 0}
      m_TileFlags: 0
      m_ColliderType: 0
  - first: {x: 5, y: -5, z: 0}
    second:
      m_TileIndex: 134
      m_TileSpriteIndex: 134
      m_TileMatrixIndex: 0
      m_TileColorIndex: 0
      m_ObjectToInstantiate: {fileID: 0}
      m_TileFlags: 0
      m_ColliderType: 0
  - first: {x: 7, y: -5, z: 0}
    second:
      m_TileIndex: 140
      m_TileSpriteIndex: 42
      m_TileMatrixIndex: 0
      m_TileColorIndex: 0
      m_ObjectToInstantiate: {fileID: 0}
      m_TileFlags: 0
      m_ColliderType: 0
  - first: {x: 13, y: -5, z: 0}
    second:
      m_TileIndex: 175
      m_TileSpriteIndex: 170
      m_TileMatrixIndex: 0
      m_TileColorIndex: 0
      m_ObjectToInstantiate: {fileID: 0}
      m_TileFlags: 0
      m_ColliderType: 0
  - first: {x: 14, y: -5, z: 0}
    second:
      m_TileIndex: 174
      m_TileSpriteIndex: 171
      m_TileMatrixIndex: 0
      m_TileColorIndex: 0
      m_ObjectToInstantiate: {fileID: 0}
      m_TileFlags: 0
      m_ColliderType: 0
  - first: {x: 13, y: -4, z: 0}
    second:
      m_TileIndex: 173
      m_TileSpriteIndex: 169
      m_TileMatrixIndex: 0
      m_TileColorIndex: 0
      m_ObjectToInstantiate: {fileID: 0}
      m_TileFlags: 0
      m_ColliderType: 0
  - first: {x: 14, y: -4, z: 0}
    second:
      m_TileIndex: 172
      m_TileSpriteIndex: 168
      m_TileMatrixIndex: 0
      m_TileColorIndex: 0
      m_ObjectToInstantiate: {fileID: 0}
      m_TileFlags: 0
      m_ColliderType: 0
  - first: {x: -15, y: -3, z: 0}
    second:
      m_TileIndex: 133
      m_TileSpriteIndex: 133
      m_TileMatrixIndex: 0
      m_TileColorIndex: 0
      m_ObjectToInstantiate: {fileID: 0}
      m_TileFlags: 0
      m_ColliderType: 0
  - first: {x: -14, y: -3, z: 0}
    second:
      m_TileIndex: 132
      m_TileSpriteIndex: 132
      m_TileMatrixIndex: 0
      m_TileColorIndex: 0
      m_ObjectToInstantiate: {fileID: 0}
      m_TileFlags: 0
      m_ColliderType: 0
  - first: {x: -13, y: -3, z: 0}
    second:
      m_TileIndex: 129
      m_TileSpriteIndex: 129
      m_TileMatrixIndex: 0
      m_TileColorIndex: 0
      m_ObjectToInstantiate: {fileID: 0}
      m_TileFlags: 0
      m_ColliderType: 0
  - first: {x: -12, y: -3, z: 0}
    second:
      m_TileIndex: 128
      m_TileSpriteIndex: 128
      m_TileMatrixIndex: 0
      m_TileColorIndex: 0
      m_ObjectToInstantiate: {fileID: 0}
      m_TileFlags: 0
      m_ColliderType: 0
  - first: {x: -11, y: -3, z: 0}
    second:
      m_TileIndex: 35
      m_TileSpriteIndex: 41
      m_TileMatrixIndex: 0
      m_TileColorIndex: 0
      m_ObjectToInstantiate: {fileID: 0}
      m_TileFlags: 0
      m_ColliderType: 0
  - first: {x: -10, y: -3, z: 0}
    second:
      m_TileIndex: 34
      m_TileSpriteIndex: 34
      m_TileMatrixIndex: 0
      m_TileColorIndex: 0
      m_ObjectToInstantiate: {fileID: 0}
      m_TileFlags: 0
      m_ColliderType: 0
  - first: {x: -9, y: -3, z: 0}
    second:
      m_TileIndex: 33
      m_TileSpriteIndex: 33
      m_TileMatrixIndex: 0
      m_TileColorIndex: 0
      m_ObjectToInstantiate: {fileID: 0}
      m_TileFlags: 0
      m_ColliderType: 0
  - first: {x: -7, y: -3, z: 0}
    second:
      m_TileIndex: 41
      m_TileSpriteIndex: 40
      m_TileMatrixIndex: 0
      m_TileColorIndex: 0
      m_ObjectToInstantiate: {fileID: 0}
      m_TileFlags: 0
      m_ColliderType: 0
  - first: {x: -6, y: -3, z: 0}
    second:
      m_TileIndex: 40
      m_TileSpriteIndex: 39
      m_TileMatrixIndex: 0
      m_TileColorIndex: 0
      m_ObjectToInstantiate: {fileID: 0}
      m_TileFlags: 0
      m_ColliderType: 0
  - first: {x: -5, y: -3, z: 0}
    second:
      m_TileIndex: 39
      m_TileSpriteIndex: 38
      m_TileMatrixIndex: 0
      m_TileColorIndex: 0
      m_ObjectToInstantiate: {fileID: 0}
      m_TileFlags: 0
      m_ColliderType: 0
  - first: {x: -3, y: -3, z: 0}
    second:
      m_TileIndex: 51
      m_TileSpriteIndex: 50
      m_TileMatrixIndex: 0
      m_TileColorIndex: 0
      m_ObjectToInstantiate: {fileID: 0}
      m_TileFlags: 0
      m_ColliderType: 0
  - first: {x: -2, y: -3, z: 0}
    second:
      m_TileIndex: 50
      m_TileSpriteIndex: 49
      m_TileMatrixIndex: 0
      m_TileColorIndex: 0
      m_ObjectToInstantiate: {fileID: 0}
      m_TileFlags: 0
      m_ColliderType: 0
  - first: {x: -1, y: -3, z: 0}
    second:
      m_TileIndex: 49
      m_TileSpriteIndex: 48
      m_TileMatrixIndex: 0
      m_TileColorIndex: 0
      m_ObjectToInstantiate: {fileID: 0}
      m_TileFlags: 0
      m_ColliderType: 0
  - first: {x: 1, y: -3, z: 0}
    second:
      m_TileIndex: 79
      m_TileSpriteIndex: 78
      m_TileMatrixIndex: 0
      m_TileColorIndex: 0
      m_ObjectToInstantiate: {fileID: 0}
      m_TileFlags: 0
      m_ColliderType: 0
  - first: {x: 2, y: -3, z: 0}
    second:
      m_TileIndex: 78
      m_TileSpriteIndex: 77
      m_TileMatrixIndex: 0
      m_TileColorIndex: 0
      m_ObjectToInstantiate: {fileID: 0}
      m_TileFlags: 0
      m_ColliderType: 0
  - first: {x: 3, y: -3, z: 0}
    second:
      m_TileIndex: 77
      m_TileSpriteIndex: 76
      m_TileMatrixIndex: 0
      m_TileColorIndex: 0
      m_ObjectToInstantiate: {fileID: 0}
      m_TileFlags: 0
      m_ColliderType: 0
  - first: {x: 4, y: -3, z: 0}
    second:
      m_TileIndex: 76
      m_TileSpriteIndex: 75
      m_TileMatrixIndex: 0
      m_TileColorIndex: 0
      m_ObjectToInstantiate: {fileID: 0}
      m_TileFlags: 0
      m_ColliderType: 0
  - first: {x: 6, y: -3, z: 0}
    second:
      m_TileIndex: 112
      m_TileSpriteIndex: 112
      m_TileMatrixIndex: 0
      m_TileColorIndex: 0
      m_ObjectToInstantiate: {fileID: 0}
      m_TileFlags: 0
      m_ColliderType: 0
  - first: {x: 8, y: -3, z: 0}
    second:
      m_TileIndex: 113
      m_TileSpriteIndex: 113
      m_TileMatrixIndex: 0
      m_TileColorIndex: 0
      m_ObjectToInstantiate: {fileID: 0}
      m_TileFlags: 0
      m_ColliderType: 0
  - first: {x: 10, y: -3, z: 0}
    second:
      m_TileIndex: 121
      m_TileSpriteIndex: 121
      m_TileMatrixIndex: 0
      m_TileColorIndex: 0
      m_ObjectToInstantiate: {fileID: 0}
      m_TileFlags: 0
      m_ColliderType: 0
  - first: {x: 12, y: -3, z: 0}
    second:
      m_TileIndex: 120
      m_TileSpriteIndex: 120
      m_TileMatrixIndex: 0
      m_TileColorIndex: 0
      m_ObjectToInstantiate: {fileID: 0}
      m_TileFlags: 0
      m_ColliderType: 0
  - first: {x: -15, y: -2, z: 0}
    second:
      m_TileIndex: 131
      m_TileSpriteIndex: 131
      m_TileMatrixIndex: 0
      m_TileColorIndex: 0
      m_ObjectToInstantiate: {fileID: 0}
      m_TileFlags: 0
      m_ColliderType: 0
  - first: {x: -14, y: -2, z: 0}
    second:
      m_TileIndex: 130
      m_TileSpriteIndex: 130
      m_TileMatrixIndex: 0
      m_TileColorIndex: 0
      m_ObjectToInstantiate: {fileID: 0}
      m_TileFlags: 0
      m_ColliderType: 0
  - first: {x: -13, y: -2, z: 0}
    second:
      m_TileIndex: 127
      m_TileSpriteIndex: 127
      m_TileMatrixIndex: 0
      m_TileColorIndex: 0
      m_ObjectToInstantiate: {fileID: 0}
      m_TileFlags: 0
      m_ColliderType: 0
  - first: {x: -12, y: -2, z: 0}
    second:
      m_TileIndex: 126
      m_TileSpriteIndex: 126
      m_TileMatrixIndex: 0
      m_TileColorIndex: 0
      m_ObjectToInstantiate: {fileID: 0}
      m_TileFlags: 0
      m_ColliderType: 0
  - first: {x: -11, y: -2, z: 0}
    second:
      m_TileIndex: 32
      m_TileSpriteIndex: 32
      m_TileMatrixIndex: 0
      m_TileColorIndex: 0
      m_ObjectToInstantiate: {fileID: 0}
      m_TileFlags: 0
      m_ColliderType: 0
  - first: {x: -10, y: -2, z: 0}
    second:
      m_TileIndex: 31
      m_TileSpriteIndex: 31
      m_TileMatrixIndex: 0
      m_TileColorIndex: 0
      m_ObjectToInstantiate: {fileID: 0}
      m_TileFlags: 0
      m_ColliderType: 0
  - first: {x: -9, y: -2, z: 0}
    second:
      m_TileIndex: 30
      m_TileSpriteIndex: 30
      m_TileMatrixIndex: 0
      m_TileColorIndex: 0
      m_ObjectToInstantiate: {fileID: 0}
      m_TileFlags: 0
      m_ColliderType: 0
  - first: {x: -7, y: -2, z: 0}
    second:
      m_TileIndex: 38
      m_TileSpriteIndex: 37
      m_TileMatrixIndex: 0
      m_TileColorIndex: 0
      m_ObjectToInstantiate: {fileID: 0}
      m_TileFlags: 0
      m_ColliderType: 0
  - first: {x: -6, y: -2, z: 0}
    second:
      m_TileIndex: 37
      m_TileSpriteIndex: 36
      m_TileMatrixIndex: 0
      m_TileColorIndex: 0
      m_ObjectToInstantiate: {fileID: 0}
      m_TileFlags: 0
      m_ColliderType: 0
  - first: {x: -5, y: -2, z: 0}
    second:
      m_TileIndex: 36
      m_TileSpriteIndex: 35
      m_TileMatrixIndex: 0
      m_TileColorIndex: 0
      m_ObjectToInstantiate: {fileID: 0}
      m_TileFlags: 0
      m_ColliderType: 0
  - first: {x: -3, y: -2, z: 0}
    second:
      m_TileIndex: 48
      m_TileSpriteIndex: 47
      m_TileMatrixIndex: 0
      m_TileColorIndex: 0
      m_ObjectToInstantiate: {fileID: 0}
      m_TileFlags: 0
      m_ColliderType: 0
  - first: {x: -2, y: -2, z: 0}
    second:
      m_TileIndex: 47
      m_TileSpriteIndex: 46
      m_TileMatrixIndex: 0
      m_TileColorIndex: 0
      m_ObjectToInstantiate: {fileID: 0}
      m_TileFlags: 0
      m_ColliderType: 0
  - first: {x: -1, y: -2, z: 0}
    second:
      m_TileIndex: 46
      m_TileSpriteIndex: 45
      m_TileMatrixIndex: 0
      m_TileColorIndex: 0
      m_ObjectToInstantiate: {fileID: 0}
      m_TileFlags: 0
      m_ColliderType: 0
  - first: {x: 1, y: -2, z: 0}
    second:
      m_TileIndex: 81
      m_TileSpriteIndex: 80
      m_TileMatrixIndex: 0
      m_TileColorIndex: 0
      m_ObjectToInstantiate: {fileID: 0}
      m_TileFlags: 0
      m_ColliderType: 0
  - first: {x: 4, y: -2, z: 0}
    second:
      m_TileIndex: 80
      m_TileSpriteIndex: 79
      m_TileMatrixIndex: 0
      m_TileColorIndex: 0
      m_ObjectToInstantiate: {fileID: 0}
      m_TileFlags: 0
      m_ColliderType: 0
  - first: {x: 6, y: -2, z: 0}
    second:
      m_TileIndex: 114
      m_TileSpriteIndex: 114
      m_TileMatrixIndex: 0
      m_TileColorIndex: 0
      m_ObjectToInstantiate: {fileID: 0}
      m_TileFlags: 0
      m_ColliderType: 0
  - first: {x: 7, y: -2, z: 0}
    second:
      m_TileIndex: 115
      m_TileSpriteIndex: 115
      m_TileMatrixIndex: 0
      m_TileColorIndex: 0
      m_ObjectToInstantiate: {fileID: 0}
      m_TileFlags: 0
      m_ColliderType: 0
  - first: {x: 8, y: -2, z: 0}
    second:
      m_TileIndex: 116
      m_TileSpriteIndex: 116
      m_TileMatrixIndex: 0
      m_TileColorIndex: 0
      m_ObjectToInstantiate: {fileID: 0}
      m_TileFlags: 0
      m_ColliderType: 0
  - first: {x: 10, y: -2, z: 0}
    second:
      m_TileIndex: 119
      m_TileSpriteIndex: 119
      m_TileMatrixIndex: 0
      m_TileColorIndex: 0
      m_ObjectToInstantiate: {fileID: 0}
      m_TileFlags: 0
      m_ColliderType: 0
  - first: {x: 11, y: -2, z: 0}
    second:
      m_TileIndex: 118
      m_TileSpriteIndex: 118
      m_TileMatrixIndex: 0
      m_TileColorIndex: 0
      m_ObjectToInstantiate: {fileID: 0}
      m_TileFlags: 0
      m_ColliderType: 0
  - first: {x: 12, y: -2, z: 0}
    second:
      m_TileIndex: 117
      m_TileSpriteIndex: 117
      m_TileMatrixIndex: 0
      m_TileColorIndex: 0
      m_ObjectToInstantiate: {fileID: 0}
      m_TileFlags: 0
      m_ColliderType: 0
  - first: {x: -15, y: 0, z: 0}
    second:
      m_TileIndex: 167
      m_TileSpriteIndex: 163
      m_TileMatrixIndex: 0
      m_TileColorIndex: 0
      m_ObjectToInstantiate: {fileID: 0}
      m_TileFlags: 0
      m_ColliderType: 0
  - first: {x: -14, y: 0, z: 0}
    second:
      m_TileIndex: 166
      m_TileSpriteIndex: 162
      m_TileMatrixIndex: 0
      m_TileColorIndex: 0
      m_ObjectToInstantiate: {fileID: 0}
      m_TileFlags: 0
      m_ColliderType: 0
  - first: {x: -13, y: 0, z: 0}
    second:
      m_TileIndex: 165
      m_TileSpriteIndex: 161
      m_TileMatrixIndex: 0
      m_TileColorIndex: 0
      m_ObjectToInstantiate: {fileID: 0}
      m_TileFlags: 0
      m_ColliderType: 0
  - first: {x: -11, y: 0, z: 0}
    second:
      m_TileIndex: 29
      m_TileSpriteIndex: 29
      m_TileMatrixIndex: 0
      m_TileColorIndex: 0
      m_ObjectToInstantiate: {fileID: 0}
      m_TileFlags: 0
      m_ColliderType: 0
  - first: {x: -10, y: 0, z: 0}
    second:
      m_TileIndex: 28
      m_TileSpriteIndex: 28
      m_TileMatrixIndex: 0
      m_TileColorIndex: 0
      m_ObjectToInstantiate: {fileID: 0}
      m_TileFlags: 0
      m_ColliderType: 0
  - first: {x: -8, y: 0, z: 0}
    second:
      m_TileIndex: 23
      m_TileSpriteIndex: 27
      m_TileMatrixIndex: 0
      m_TileColorIndex: 0
      m_ObjectToInstantiate: {fileID: 0}
      m_TileFlags: 0
      m_ColliderType: 0
  - first: {x: -7, y: 0, z: 0}
    second:
      m_TileIndex: 22
      m_TileSpriteIndex: 22
      m_TileMatrixIndex: 0
      m_TileColorIndex: 0
      m_ObjectToInstantiate: {fileID: 0}
      m_TileFlags: 0
      m_ColliderType: 0
  - first: {x: -5, y: 0, z: 0}
    second:
      m_TileIndex: 17
      m_TileSpriteIndex: 21
      m_TileMatrixIndex: 0
      m_TileColorIndex: 0
      m_ObjectToInstantiate: {fileID: 0}
      m_TileFlags: 0
      m_ColliderType: 0
  - first: {x: -4, y: 0, z: 0}
    second:
      m_TileIndex: 16
      m_TileSpriteIndex: 16
      m_TileMatrixIndex: 0
      m_TileColorIndex: 0
      m_ObjectToInstantiate: {fileID: 0}
      m_TileFlags: 0
      m_ColliderType: 0
  - first: {x: -2, y: 0, z: 0}
    second:
      m_TileIndex: 73
      m_TileSpriteIndex: 72
      m_TileMatrixIndex: 0
      m_TileColorIndex: 0
      m_ObjectToInstantiate: {fileID: 0}
      m_TileFlags: 0
      m_ColliderType: 0
  - first: {x: -1, y: 0, z: 0}
    second:
      m_TileIndex: 72
      m_TileSpriteIndex: 71
      m_TileMatrixIndex: 0
      m_TileColorIndex: 0
      m_ObjectToInstantiate: {fileID: 0}
      m_TileFlags: 0
      m_ColliderType: 0
  - first: {x: 1, y: 0, z: 0}
    second:
      m_TileIndex: 85
      m_TileSpriteIndex: 15
      m_TileMatrixIndex: 0
      m_TileColorIndex: 0
      m_ObjectToInstantiate: {fileID: 0}
      m_TileFlags: 0
      m_ColliderType: 0
  - first: {x: 2, y: 0, z: 0}
    second:
      m_TileIndex: 86
      m_TileSpriteIndex: 5
      m_TileMatrixIndex: 0
      m_TileColorIndex: 0
      m_ObjectToInstantiate: {fileID: 0}
      m_TileFlags: 0
      m_ColliderType: 0
  - first: {x: 4, y: 0, z: 0}
    second:
      m_TileIndex: 89
      m_TileSpriteIndex: 188
      m_TileMatrixIndex: 0
      m_TileColorIndex: 0
      m_ObjectToInstantiate: {fileID: 0}
      m_TileFlags: 0
      m_ColliderType: 0
  - first: {x: 5, y: 0, z: 0}
    second:
      m_TileIndex: 90
      m_TileSpriteIndex: 187
      m_TileMatrixIndex: 0
      m_TileColorIndex: 0
      m_ObjectToInstantiate: {fileID: 0}
      m_TileFlags: 0
      m_ColliderType: 0
  - first: {x: 7, y: 0, z: 0}
    second:
      m_TileIndex: 149
      m_TileSpriteIndex: 149
      m_TileMatrixIndex: 0
      m_TileColorIndex: 0
      m_ObjectToInstantiate: {fileID: 0}
      m_TileFlags: 0
      m_ColliderType: 0
  - first: {x: 8, y: 0, z: 0}
    second:
      m_TileIndex: 148
      m_TileSpriteIndex: 148
      m_TileMatrixIndex: 0
      m_TileColorIndex: 0
      m_ObjectToInstantiate: {fileID: 0}
      m_TileFlags: 0
      m_ColliderType: 0
  - first: {x: 10, y: 0, z: 0}
    second:
      m_TileIndex: 168
      m_TileSpriteIndex: 164
      m_TileMatrixIndex: 0
      m_TileColorIndex: 0
      m_ObjectToInstantiate: {fileID: 0}
      m_TileFlags: 0
      m_ColliderType: 0
  - first: {x: 11, y: 0, z: 0}
    second:
      m_TileIndex: 171
      m_TileSpriteIndex: 167
      m_TileMatrixIndex: 0
      m_TileColorIndex: 0
      m_ObjectToInstantiate: {fileID: 0}
      m_TileFlags: 0
      m_ColliderType: 0
  - first: {x: 13, y: 0, z: 0}
    second:
      m_TileIndex: 179
      m_TileSpriteIndex: 175
      m_TileMatrixIndex: 0
      m_TileColorIndex: 0
      m_ObjectToInstantiate: {fileID: 0}
      m_TileFlags: 0
      m_ColliderType: 0
  - first: {x: 14, y: 0, z: 0}
    second:
      m_TileIndex: 178
      m_TileSpriteIndex: 174
      m_TileMatrixIndex: 0
      m_TileColorIndex: 0
      m_ObjectToInstantiate: {fileID: 0}
      m_TileFlags: 0
      m_ColliderType: 0
  - first: {x: -15, y: 1, z: 0}
    second:
      m_TileIndex: 164
      m_TileSpriteIndex: 160
      m_TileMatrixIndex: 0
      m_TileColorIndex: 0
      m_ObjectToInstantiate: {fileID: 0}
      m_TileFlags: 0
      m_ColliderType: 0
  - first: {x: -14, y: 1, z: 0}
    second:
      m_TileIndex: 163
      m_TileSpriteIndex: 159
      m_TileMatrixIndex: 0
      m_TileColorIndex: 0
      m_ObjectToInstantiate: {fileID: 0}
      m_TileFlags: 0
      m_ColliderType: 0
  - first: {x: -13, y: 1, z: 0}
    second:
      m_TileIndex: 162
      m_TileSpriteIndex: 158
      m_TileMatrixIndex: 0
      m_TileColorIndex: 0
      m_ObjectToInstantiate: {fileID: 0}
      m_TileFlags: 0
      m_ColliderType: 0
  - first: {x: -11, y: 1, z: 0}
    second:
      m_TileIndex: 27
      m_TileSpriteIndex: 90
      m_TileMatrixIndex: 0
      m_TileColorIndex: 0
      m_ObjectToInstantiate: {fileID: 0}
      m_TileFlags: 0
      m_ColliderType: 0
  - first: {x: -10, y: 1, z: 0}
    second:
      m_TileIndex: 26
      m_TileSpriteIndex: 89
      m_TileMatrixIndex: 0
      m_TileColorIndex: 0
      m_ObjectToInstantiate: {fileID: 0}
      m_TileFlags: 0
      m_ColliderType: 0
  - first: {x: -8, y: 1, z: 0}
    second:
      m_TileIndex: 21
      m_TileSpriteIndex: 86
      m_TileMatrixIndex: 0
      m_TileColorIndex: 0
      m_ObjectToInstantiate: {fileID: 0}
      m_TileFlags: 0
      m_ColliderType: 0
  - first: {x: -7, y: 1, z: 0}
    second:
      m_TileIndex: 20
      m_TileSpriteIndex: 85
      m_TileMatrixIndex: 0
      m_TileColorIndex: 0
      m_ObjectToInstantiate: {fileID: 0}
      m_TileFlags: 0
      m_ColliderType: 0
  - first: {x: -5, y: 1, z: 0}
    second:
      m_TileIndex: 15
      m_TileSpriteIndex: 26
      m_TileMatrixIndex: 0
      m_TileColorIndex: 0
      m_ObjectToInstantiate: {fileID: 0}
      m_TileFlags: 0
      m_ColliderType: 0
  - first: {x: -4, y: 1, z: 0}
    second:
      m_TileIndex: 14
      m_TileSpriteIndex: 25
      m_TileMatrixIndex: 0
      m_TileColorIndex: 0
      m_ObjectToInstantiate: {fileID: 0}
      m_TileFlags: 0
      m_ColliderType: 0
  - first: {x: -2, y: 1, z: 0}
    second:
      m_TileIndex: 71
      m_TileSpriteIndex: 70
      m_TileMatrixIndex: 0
      m_TileColorIndex: 0
      m_ObjectToInstantiate: {fileID: 0}
      m_TileFlags: 0
      m_ColliderType: 0
  - first: {x: -1, y: 1, z: 0}
    second:
      m_TileIndex: 70
      m_TileSpriteIndex: 69
      m_TileMatrixIndex: 0
      m_TileColorIndex: 0
      m_ObjectToInstantiate: {fileID: 0}
      m_TileFlags: 0
      m_ColliderType: 0
  - first: {x: 1, y: 1, z: 0}
    second:
      m_TileIndex: 87
      m_TileSpriteIndex: 4
      m_TileMatrixIndex: 0
      m_TileColorIndex: 0
      m_ObjectToInstantiate: {fileID: 0}
      m_TileFlags: 0
      m_ColliderType: 0
  - first: {x: 2, y: 1, z: 0}
    second:
      m_TileIndex: 88
      m_TileSpriteIndex: 191
      m_TileMatrixIndex: 0
      m_TileColorIndex: 0
      m_ObjectToInstantiate: {fileID: 0}
      m_TileFlags: 0
      m_ColliderType: 0
  - first: {x: 4, y: 1, z: 0}
    second:
      m_TileIndex: 91
      m_TileSpriteIndex: 190
      m_TileMatrixIndex: 0
      m_TileColorIndex: 0
      m_ObjectToInstantiate: {fileID: 0}
      m_TileFlags: 0
      m_ColliderType: 0
  - first: {x: 5, y: 1, z: 0}
    second:
      m_TileIndex: 92
      m_TileSpriteIndex: 189
      m_TileMatrixIndex: 0
      m_TileColorIndex: 0
      m_ObjectToInstantiate: {fileID: 0}
      m_TileFlags: 0
      m_ColliderType: 0
  - first: {x: 7, y: 1, z: 0}
    second:
      m_TileIndex: 147
      m_TileSpriteIndex: 147
      m_TileMatrixIndex: 0
      m_TileColorIndex: 0
      m_ObjectToInstantiate: {fileID: 0}
      m_TileFlags: 0
      m_ColliderType: 0
  - first: {x: 8, y: 1, z: 0}
    second:
      m_TileIndex: 146
      m_TileSpriteIndex: 146
      m_TileMatrixIndex: 0
      m_TileColorIndex: 0
      m_ObjectToInstantiate: {fileID: 0}
      m_TileFlags: 0
      m_ColliderType: 0
  - first: {x: 10, y: 1, z: 0}
    second:
      m_TileIndex: 169
      m_TileSpriteIndex: 165
      m_TileMatrixIndex: 0
      m_TileColorIndex: 0
      m_ObjectToInstantiate: {fileID: 0}
      m_TileFlags: 0
      m_ColliderType: 0
  - first: {x: 11, y: 1, z: 0}
    second:
      m_TileIndex: 170
      m_TileSpriteIndex: 166
      m_TileMatrixIndex: 0
      m_TileColorIndex: 0
      m_ObjectToInstantiate: {fileID: 0}
      m_TileFlags: 0
      m_ColliderType: 0
  - first: {x: 13, y: 1, z: 0}
    second:
      m_TileIndex: 177
      m_TileSpriteIndex: 173
      m_TileMatrixIndex: 0
      m_TileColorIndex: 0
      m_ObjectToInstantiate: {fileID: 0}
      m_TileFlags: 0
      m_ColliderType: 0
  - first: {x: 14, y: 1, z: 0}
    second:
      m_TileIndex: 176
      m_TileSpriteIndex: 172
      m_TileMatrixIndex: 0
      m_TileColorIndex: 0
      m_ObjectToInstantiate: {fileID: 0}
      m_TileFlags: 0
      m_ColliderType: 0
  - first: {x: -11, y: 2, z: 0}
    second:
      m_TileIndex: 25
      m_TileSpriteIndex: 92
      m_TileMatrixIndex: 0
      m_TileColorIndex: 0
      m_ObjectToInstantiate: {fileID: 0}
      m_TileFlags: 0
      m_ColliderType: 0
  - first: {x: -10, y: 2, z: 0}
    second:
      m_TileIndex: 24
      m_TileSpriteIndex: 91
      m_TileMatrixIndex: 0
      m_TileColorIndex: 0
      m_ObjectToInstantiate: {fileID: 0}
      m_TileFlags: 0
      m_ColliderType: 0
  - first: {x: -8, y: 2, z: 0}
    second:
      m_TileIndex: 19
      m_TileSpriteIndex: 88
      m_TileMatrixIndex: 0
      m_TileColorIndex: 0
      m_ObjectToInstantiate: {fileID: 0}
      m_TileFlags: 0
      m_ColliderType: 0
  - first: {x: -7, y: 2, z: 0}
    second:
      m_TileIndex: 18
      m_TileSpriteIndex: 87
      m_TileMatrixIndex: 0
      m_TileColorIndex: 0
      m_ObjectToInstantiate: {fileID: 0}
      m_TileFlags: 0
      m_ColliderType: 0
  - first: {x: -5, y: 2, z: 0}
    second:
      m_TileIndex: 13
      m_TileSpriteIndex: 24
      m_TileMatrixIndex: 0
      m_TileColorIndex: 0
      m_ObjectToInstantiate: {fileID: 0}
      m_TileFlags: 0
      m_ColliderType: 0
  - first: {x: -4, y: 2, z: 0}
    second:
      m_TileIndex: 12
      m_TileSpriteIndex: 23
      m_TileMatrixIndex: 0
      m_TileColorIndex: 0
      m_ObjectToInstantiate: {fileID: 0}
      m_TileFlags: 0
      m_ColliderType: 0
  - first: {x: -2, y: 2, z: 0}
    second:
      m_TileIndex: 69
      m_TileSpriteIndex: 68
      m_TileMatrixIndex: 0
      m_TileColorIndex: 0
      m_ObjectToInstantiate: {fileID: 0}
      m_TileFlags: 0
      m_ColliderType: 0
  - first: {x: -1, y: 2, z: 0}
    second:
      m_TileIndex: 68
      m_TileSpriteIndex: 67
      m_TileMatrixIndex: 0
      m_TileColorIndex: 0
      m_ObjectToInstantiate: {fileID: 0}
      m_TileFlags: 0
      m_ColliderType: 0
  - first: {x: 4, y: 2, z: 0}
    second:
      m_TileIndex: 93
      m_TileSpriteIndex: 93
      m_TileMatrixIndex: 0
      m_TileColorIndex: 0
      m_ObjectToInstantiate: {fileID: 0}
      m_TileFlags: 0
      m_ColliderType: 0
  - first: {x: 5, y: 2, z: 0}
    second:
      m_TileIndex: 94
      m_TileSpriteIndex: 94
      m_TileMatrixIndex: 0
      m_TileColorIndex: 0
      m_ObjectToInstantiate: {fileID: 0}
      m_TileFlags: 0
      m_ColliderType: 0
  - first: {x: 11, y: 2, z: 0}
    second:
      m_TileIndex: 161
      m_TileSpriteIndex: 3
      m_TileMatrixIndex: 0
      m_TileColorIndex: 0
      m_ObjectToInstantiate: {fileID: 0}
      m_TileFlags: 0
      m_ColliderType: 0
  - first: {x: -11, y: 4, z: 0}
    second:
      m_TileIndex: 0
      m_TileSpriteIndex: 20
      m_TileMatrixIndex: 0
      m_TileColorIndex: 0
      m_ObjectToInstantiate: {fileID: 0}
      m_TileFlags: 0
      m_ColliderType: 0
  - first: {x: -10, y: 4, z: 0}
    second:
      m_TileIndex: 3
      m_TileSpriteIndex: 19
      m_TileMatrixIndex: 0
      m_TileColorIndex: 0
      m_ObjectToInstantiate: {fileID: 0}
      m_TileFlags: 0
      m_ColliderType: 0
  - first: {x: -9, y: 4, z: 0}
    second:
      m_TileIndex: 6
      m_TileSpriteIndex: 18
      m_TileMatrixIndex: 0
      m_TileColorIndex: 0
      m_ObjectToInstantiate: {fileID: 0}
      m_TileFlags: 0
      m_ColliderType: 0
  - first: {x: -7, y: 4, z: 0}
    second:
      m_TileIndex: 0
      m_TileSpriteIndex: 20
      m_TileMatrixIndex: 0
      m_TileColorIndex: 0
      m_ObjectToInstantiate: {fileID: 0}
      m_TileFlags: 0
      m_ColliderType: 0
  - first: {x: -6, y: 4, z: 0}
    second:
      m_TileIndex: 3
      m_TileSpriteIndex: 19
      m_TileMatrixIndex: 0
      m_TileColorIndex: 0
      m_ObjectToInstantiate: {fileID: 0}
      m_TileFlags: 0
      m_ColliderType: 0
  - first: {x: -5, y: 4, z: 0}
    second:
      m_TileIndex: 6
      m_TileSpriteIndex: 18
      m_TileMatrixIndex: 0
      m_TileColorIndex: 0
      m_ObjectToInstantiate: {fileID: 0}
      m_TileFlags: 0
      m_ColliderType: 0
  - first: {x: -3, y: 4, z: 0}
    second:
      m_TileIndex: 82
      m_TileSpriteIndex: 142
      m_TileMatrixIndex: 0
      m_TileColorIndex: 0
      m_ObjectToInstantiate: {fileID: 0}
      m_TileFlags: 0
      m_ColliderType: 0
  - first: {x: -1, y: 4, z: 0}
    second:
      m_TileIndex: 95
      m_TileSpriteIndex: 141
      m_TileMatrixIndex: 0
      m_TileColorIndex: 0
      m_ObjectToInstantiate: {fileID: 0}
      m_TileFlags: 0
      m_ColliderType: 0
  - first: {x: 6, y: 4, z: 0}
    second:
      m_TileIndex: 108
      m_TileSpriteIndex: 140
      m_TileMatrixIndex: 0
      m_TileColorIndex: 0
      m_ObjectToInstantiate: {fileID: 0}
      m_TileFlags: 0
      m_ColliderType: 0
  - first: {x: -14, y: 5, z: 0}
    second:
      m_TileIndex: 191
      m_TileSpriteIndex: 186
      m_TileMatrixIndex: 0
      m_TileColorIndex: 0
      m_ObjectToInstantiate: {fileID: 1884147707968685476, guid: 1eaedddb7c0df5a469270e468017c4cb,
        type: 3}
      m_TileFlags: 0
      m_ColliderType: 0
  - first: {x: -11, y: 5, z: 0}
    second:
      m_TileIndex: 1
      m_TileSpriteIndex: 17
      m_TileMatrixIndex: 0
      m_TileColorIndex: 0
      m_ObjectToInstantiate: {fileID: 0}
      m_TileFlags: 0
      m_ColliderType: 0
  - first: {x: -10, y: 5, z: 0}
    second:
      m_TileIndex: 4
      m_TileSpriteIndex: 14
      m_TileMatrixIndex: 0
      m_TileColorIndex: 0
      m_ObjectToInstantiate: {fileID: 0}
      m_TileFlags: 0
      m_ColliderType: 0
  - first: {x: -9, y: 5, z: 0}
    second:
      m_TileIndex: 7
      m_TileSpriteIndex: 13
      m_TileMatrixIndex: 0
      m_TileColorIndex: 0
      m_ObjectToInstantiate: {fileID: 0}
      m_TileFlags: 0
      m_ColliderType: 0
  - first: {x: -7, y: 5, z: 0}
    second:
      m_TileIndex: 1
      m_TileSpriteIndex: 17
      m_TileMatrixIndex: 0
      m_TileColorIndex: 0
      m_ObjectToInstantiate: {fileID: 0}
      m_TileFlags: 0
      m_ColliderType: 0
  - first: {x: -6, y: 5, z: 0}
    second:
      m_TileIndex: 4
      m_TileSpriteIndex: 14
      m_TileMatrixIndex: 0
      m_TileColorIndex: 0
      m_ObjectToInstantiate: {fileID: 0}
      m_TileFlags: 0
      m_ColliderType: 0
  - first: {x: -5, y: 5, z: 0}
    second:
      m_TileIndex: 7
      m_TileSpriteIndex: 13
      m_TileMatrixIndex: 0
      m_TileColorIndex: 0
      m_ObjectToInstantiate: {fileID: 0}
      m_TileFlags: 0
      m_ColliderType: 0
  - first: {x: -3, y: 5, z: 0}
    second:
      m_TileIndex: 83
      m_TileSpriteIndex: 108
      m_TileMatrixIndex: 0
      m_TileColorIndex: 0
      m_ObjectToInstantiate: {fileID: 0}
      m_TileFlags: 0
      m_ColliderType: 0
  - first: {x: -1, y: 5, z: 0}
    second:
      m_TileIndex: 96
      m_TileSpriteIndex: 97
      m_TileMatrixIndex: 0
      m_TileColorIndex: 0
      m_ObjectToInstantiate: {fileID: 0}
      m_TileFlags: 0
      m_ColliderType: 0
  - first: {x: 0, y: 5, z: 0}
    second:
      m_TileIndex: 97
      m_TileSpriteIndex: 96
      m_TileMatrixIndex: 0
      m_TileColorIndex: 0
      m_ObjectToInstantiate: {fileID: 0}
      m_TileFlags: 0
      m_ColliderType: 0
  - first: {x: 5, y: 5, z: 0}
    second:
      m_TileIndex: 107
      m_TileSpriteIndex: 107
      m_TileMatrixIndex: 0
      m_TileColorIndex: 0
      m_ObjectToInstantiate: {fileID: 0}
      m_TileFlags: 0
      m_ColliderType: 0
  - first: {x: 6, y: 5, z: 0}
    second:
      m_TileIndex: 106
      m_TileSpriteIndex: 106
      m_TileMatrixIndex: 0
      m_TileColorIndex: 0
      m_ObjectToInstantiate: {fileID: 0}
      m_TileFlags: 0
      m_ColliderType: 0
  - first: {x: 9, y: 5, z: 0}
    second:
      m_TileIndex: 184
      m_TileSpriteIndex: 180
      m_TileMatrixIndex: 0
      m_TileColorIndex: 0
      m_ObjectToInstantiate: {fileID: 0}
      m_TileFlags: 0
      m_ColliderType: 0
  - first: {x: -11, y: 6, z: 0}
    second:
      m_TileIndex: 2
      m_TileSpriteIndex: 95
      m_TileMatrixIndex: 0
      m_TileColorIndex: 0
      m_ObjectToInstantiate: {fileID: 0}
      m_TileFlags: 0
      m_ColliderType: 0
  - first: {x: -10, y: 6, z: 0}
    second:
      m_TileIndex: 5
      m_TileSpriteIndex: 83
      m_TileMatrixIndex: 0
      m_TileColorIndex: 0
      m_ObjectToInstantiate: {fileID: 0}
      m_TileFlags: 0
      m_ColliderType: 0
  - first: {x: -9, y: 6, z: 0}
    second:
      m_TileIndex: 8
      m_TileSpriteIndex: 82
      m_TileMatrixIndex: 0
      m_TileColorIndex: 0
      m_ObjectToInstantiate: {fileID: 0}
      m_TileFlags: 0
      m_ColliderType: 0
  - first: {x: -7, y: 6, z: 0}
    second:
      m_TileIndex: 10
      m_TileSpriteIndex: 81
      m_TileMatrixIndex: 0
      m_TileColorIndex: 0
      m_ObjectToInstantiate: {fileID: 0}
      m_TileFlags: 0
      m_ColliderType: 0
  - first: {x: -6, y: 6, z: 0}
    second:
      m_TileIndex: 9
      m_TileSpriteIndex: 12
      m_TileMatrixIndex: 0
      m_TileColorIndex: 0
      m_ObjectToInstantiate: {fileID: 0}
      m_TileFlags: 0
      m_ColliderType: 0
  - first: {x: -5, y: 6, z: 0}
    second:
      m_TileIndex: 11
      m_TileSpriteIndex: 11
      m_TileMatrixIndex: 0
      m_TileColorIndex: 0
      m_ObjectToInstantiate: {fileID: 0}
      m_TileFlags: 0
      m_ColliderType: 0
  - first: {x: -3, y: 6, z: 0}
    second:
      m_TileIndex: 84
      m_TileSpriteIndex: 84
      m_TileMatrixIndex: 0
      m_TileColorIndex: 0
      m_ObjectToInstantiate: {fileID: 0}
      m_TileFlags: 0
      m_ColliderType: 0
  - first: {x: 0, y: 6, z: 0}
    second:
      m_TileIndex: 98
      m_TileSpriteIndex: 98
      m_TileMatrixIndex: 0
      m_TileColorIndex: 0
      m_ObjectToInstantiate: {fileID: 0}
      m_TileFlags: 0
      m_ColliderType: 0
  - first: {x: 1, y: 6, z: 0}
    second:
      m_TileIndex: 99
      m_TileSpriteIndex: 99
      m_TileMatrixIndex: 0
      m_TileColorIndex: 0
      m_ObjectToInstantiate: {fileID: 0}
      m_TileFlags: 0
      m_ColliderType: 0
  - first: {x: 4, y: 6, z: 0}
    second:
      m_TileIndex: 105
      m_TileSpriteIndex: 105
      m_TileMatrixIndex: 0
      m_TileColorIndex: 0
      m_ObjectToInstantiate: {fileID: 0}
      m_TileFlags: 0
      m_ColliderType: 0
  - first: {x: 5, y: 6, z: 0}
    second:
      m_TileIndex: 104
      m_TileSpriteIndex: 104
      m_TileMatrixIndex: 0
      m_TileColorIndex: 0
      m_ObjectToInstantiate: {fileID: 0}
      m_TileFlags: 0
      m_ColliderType: 0
  - first: {x: 9, y: 6, z: 0}
    second:
      m_TileIndex: 183
      m_TileSpriteIndex: 179
      m_TileMatrixIndex: 0
      m_TileColorIndex: 0
      m_ObjectToInstantiate: {fileID: 0}
      m_TileFlags: 0
      m_ColliderType: 0
  - first: {x: 1, y: 7, z: 0}
    second:
      m_TileIndex: 100
      m_TileSpriteIndex: 100
      m_TileMatrixIndex: 0
      m_TileColorIndex: 0
      m_ObjectToInstantiate: {fileID: 0}
      m_TileFlags: 0
      m_ColliderType: 0
  - first: {x: 2, y: 7, z: 0}
    second:
      m_TileIndex: 101
      m_TileSpriteIndex: 101
      m_TileMatrixIndex: 0
      m_TileColorIndex: 0
      m_ObjectToInstantiate: {fileID: 0}
      m_TileFlags: 0
      m_ColliderType: 0
  - first: {x: 3, y: 7, z: 0}
    second:
      m_TileIndex: 102
      m_TileSpriteIndex: 102
      m_TileMatrixIndex: 0
      m_TileColorIndex: 0
      m_ObjectToInstantiate: {fileID: 0}
      m_TileFlags: 0
      m_ColliderType: 0
  - first: {x: 4, y: 7, z: 0}
    second:
      m_TileIndex: 103
      m_TileSpriteIndex: 103
      m_TileMatrixIndex: 0
      m_TileColorIndex: 0
      m_ObjectToInstantiate: {fileID: 0}
      m_TileFlags: 0
      m_ColliderType: 0
  - first: {x: 8, y: 7, z: 0}
    second:
      m_TileIndex: 182
      m_TileSpriteIndex: 178
      m_TileMatrixIndex: 0
      m_TileColorIndex: 0
      m_ObjectToInstantiate: {fileID: 0}
      m_TileFlags: 0
      m_ColliderType: 0
  - first: {x: 9, y: 7, z: 0}
    second:
      m_TileIndex: 180
      m_TileSpriteIndex: 176
      m_TileMatrixIndex: 0
      m_TileColorIndex: 0
      m_ObjectToInstantiate: {fileID: 0}
      m_TileFlags: 0
      m_ColliderType: 0
  - first: {x: 10, y: 7, z: 0}
    second:
      m_TileIndex: 181
      m_TileSpriteIndex: 177
      m_TileMatrixIndex: 0
      m_TileColorIndex: 0
      m_ObjectToInstantiate: {fileID: 0}
      m_TileFlags: 0
      m_ColliderType: 0
  - first: {x: 11, y: 7, z: 0}
    second:
      m_TileIndex: 185
      m_TileSpriteIndex: 181
      m_TileMatrixIndex: 0
      m_TileColorIndex: 0
      m_ObjectToInstantiate: {fileID: 0}
      m_TileFlags: 0
      m_ColliderType: 0
  - first: {x: 7, y: 8, z: 0}
    second:
      m_TileIndex: 186
      m_TileSpriteIndex: 10
      m_TileMatrixIndex: 0
      m_TileColorIndex: 0
      m_ObjectToInstantiate: {fileID: 0}
      m_TileFlags: 0
      m_ColliderType: 0
  - first: {x: 8, y: 8, z: 0}
    second:
      m_TileIndex: 186
      m_TileSpriteIndex: 10
      m_TileMatrixIndex: 0
      m_TileColorIndex: 0
      m_ObjectToInstantiate: {fileID: 0}
      m_TileFlags: 0
      m_ColliderType: 0
  - first: {x: 9, y: 8, z: 0}
    second:
      m_TileIndex: 188
      m_TileSpriteIndex: 9
      m_TileMatrixIndex: 0
      m_TileColorIndex: 0
      m_ObjectToInstantiate: {fileID: 0}
      m_TileFlags: 0
      m_ColliderType: 0
  - first: {x: 10, y: 8, z: 0}
    second:
      m_TileIndex: 188
      m_TileSpriteIndex: 9
      m_TileMatrixIndex: 0
      m_TileColorIndex: 0
      m_ObjectToInstantiate: {fileID: 0}
      m_TileFlags: 0
      m_ColliderType: 0
  - first: {x: 11, y: 8, z: 0}
    second:
      m_TileIndex: 188
      m_TileSpriteIndex: 9
      m_TileMatrixIndex: 0
      m_TileColorIndex: 0
      m_ObjectToInstantiate: {fileID: 0}
      m_TileFlags: 0
      m_ColliderType: 0
  - first: {x: 13, y: 8, z: 0}
    second:
      m_TileIndex: 189
      m_TileSpriteIndex: 8
      m_TileMatrixIndex: 0
      m_TileColorIndex: 0
      m_ObjectToInstantiate: {fileID: 0}
      m_TileFlags: 0
      m_ColliderType: 0
  - first: {x: 14, y: 8, z: 0}
    second:
      m_TileIndex: 190
      m_TileSpriteIndex: 7
      m_TileMatrixIndex: 0
      m_TileColorIndex: 0
      m_ObjectToInstantiate: {fileID: 0}
      m_TileFlags: 0
      m_ColliderType: 0
  - first: {x: 7, y: 9, z: 0}
    second:
      m_TileIndex: 186
      m_TileSpriteIndex: 10
      m_TileMatrixIndex: 0
      m_TileColorIndex: 0
      m_ObjectToInstantiate: {fileID: 0}
      m_TileFlags: 0
      m_ColliderType: 0
  - first: {x: 8, y: 9, z: 0}
    second:
      m_TileIndex: 186
      m_TileSpriteIndex: 10
      m_TileMatrixIndex: 0
      m_TileColorIndex: 0
      m_ObjectToInstantiate: {fileID: 0}
      m_TileFlags: 0
      m_ColliderType: 0
  - first: {x: 9, y: 9, z: 0}
    second:
      m_TileIndex: 187
      m_TileSpriteIndex: 6
      m_TileMatrixIndex: 0
      m_TileColorIndex: 0
      m_ObjectToInstantiate: {fileID: 0}
      m_TileFlags: 0
      m_ColliderType: 0
  - first: {x: 10, y: 9, z: 0}
    second:
      m_TileIndex: 187
      m_TileSpriteIndex: 6
      m_TileMatrixIndex: 0
      m_TileColorIndex: 0
      m_ObjectToInstantiate: {fileID: 0}
      m_TileFlags: 0
      m_ColliderType: 0
  - first: {x: 11, y: 9, z: 0}
    second:
      m_TileIndex: 187
      m_TileSpriteIndex: 6
      m_TileMatrixIndex: 0
      m_TileColorIndex: 0
      m_ObjectToInstantiate: {fileID: 0}
      m_TileFlags: 0
      m_ColliderType: 0
  - first: {x: 13, y: 9, z: 0}
    second:
      m_TileIndex: 189
      m_TileSpriteIndex: 8
      m_TileMatrixIndex: 0
      m_TileColorIndex: 0
      m_ObjectToInstantiate: {fileID: 0}
      m_TileFlags: 0
      m_ColliderType: 0
  - first: {x: 14, y: 9, z: 0}
    second:
      m_TileIndex: 190
      m_TileSpriteIndex: 7
      m_TileMatrixIndex: 0
      m_TileColorIndex: 0
      m_ObjectToInstantiate: {fileID: 0}
      m_TileFlags: 0
      m_ColliderType: 0
  m_AnimatedTiles: {}
  m_TileAssetArray:
  - m_RefCount: 2
    m_Data: {fileID: 11400000, guid: 3a882faa9a9a2de4a9c50c5eb88bc3ce, type: 2}
  - m_RefCount: 2
    m_Data: {fileID: 11400000, guid: aac2caaa9d64882429a2c5520de6826b, type: 2}
  - m_RefCount: 1
    m_Data: {fileID: 11400000, guid: fc870ecc872b9e9488a1992b54143850, type: 2}
  - m_RefCount: 2
    m_Data: {fileID: 11400000, guid: 7fb57727bd6b3804eb3e5b0960370104, type: 2}
  - m_RefCount: 2
    m_Data: {fileID: 11400000, guid: ee81bb9e20f91df4d9c353b3e82cbf71, type: 2}
  - m_RefCount: 1
    m_Data: {fileID: 11400000, guid: 34cffa1dbd907aa43884d9d83222c04d, type: 2}
  - m_RefCount: 2
    m_Data: {fileID: 11400000, guid: 45b33945c4cdd0a49b6df50d806964b6, type: 2}
  - m_RefCount: 2
    m_Data: {fileID: 11400000, guid: 9b1bf223e011c3e41b41c5ac575ef31c, type: 2}
  - m_RefCount: 1
    m_Data: {fileID: 11400000, guid: 88a6abe7e46b77f428a0d145877e7424, type: 2}
  - m_RefCount: 1
    m_Data: {fileID: 11400000, guid: 3c58fe534e1c34845a56e4b558143308, type: 2}
  - m_RefCount: 1
    m_Data: {fileID: 11400000, guid: cda353a9e184a00408cf41858559a7d8, type: 2}
  - m_RefCount: 1
    m_Data: {fileID: 11400000, guid: 660bf8fcb1aedc24297b257624217479, type: 2}
  - m_RefCount: 1
    m_Data: {fileID: 11400000, guid: 3f387670d1da8be499fe3a471b0460d1, type: 2}
  - m_RefCount: 1
    m_Data: {fileID: 11400000, guid: 37f4b799902f983468313ba1c33bad19, type: 2}
  - m_RefCount: 1
    m_Data: {fileID: 11400000, guid: d563ff33aa63ee244aefeaf38c558345, type: 2}
  - m_RefCount: 1
    m_Data: {fileID: 11400000, guid: 278250620ec5a7f40a353635834681a4, type: 2}
  - m_RefCount: 1
    m_Data: {fileID: 11400000, guid: 3d4c1c3b49550aa4b9162d0285ed5568, type: 2}
  - m_RefCount: 1
    m_Data: {fileID: 11400000, guid: 5775c60a3b7f92841831d4250910d68a, type: 2}
  - m_RefCount: 1
    m_Data: {fileID: 11400000, guid: eb337231efd81e14199aa0b6b34a03ea, type: 2}
  - m_RefCount: 1
    m_Data: {fileID: 11400000, guid: 4e288d0a1e4335b4d9efffa416c5b7af, type: 2}
  - m_RefCount: 1
    m_Data: {fileID: 11400000, guid: 03b3350043c1d9f4eb42186a6038d145, type: 2}
  - m_RefCount: 1
    m_Data: {fileID: 11400000, guid: 7c46357c094b52140af6e4f3ee3b5936, type: 2}
  - m_RefCount: 1
    m_Data: {fileID: 11400000, guid: 6c26d638c6bfb0142b57562aade11e61, type: 2}
  - m_RefCount: 1
    m_Data: {fileID: 11400000, guid: bdb47fe7cad407f44b5e091b3aeafe20, type: 2}
  - m_RefCount: 1
    m_Data: {fileID: 11400000, guid: f27ea26e00585144cba788efecc54a49, type: 2}
  - m_RefCount: 1
    m_Data: {fileID: 11400000, guid: cd41b7cc015691a418737aa5c1bcaba7, type: 2}
  - m_RefCount: 1
    m_Data: {fileID: 11400000, guid: 0294c545309657445adeb786f39213d8, type: 2}
  - m_RefCount: 1
    m_Data: {fileID: 11400000, guid: b5ac369757c354a4eaef1db88269dd8a, type: 2}
  - m_RefCount: 1
    m_Data: {fileID: 11400000, guid: f77de20d37ac04d4ea80fdcbe98e89ac, type: 2}
  - m_RefCount: 1
    m_Data: {fileID: 11400000, guid: c58673f18428442428e10a71b5f41c65, type: 2}
  - m_RefCount: 1
    m_Data: {fileID: 11400000, guid: 7a12e6e65479fcc4bb398b58fc3fc925, type: 2}
  - m_RefCount: 1
    m_Data: {fileID: 11400000, guid: 26a5192d6f67b0e47bc9b3d0d1015b1a, type: 2}
  - m_RefCount: 1
    m_Data: {fileID: 11400000, guid: da62da1471160634da6f1a1cb948a33b, type: 2}
  - m_RefCount: 1
    m_Data: {fileID: 11400000, guid: 4b210f5dfa0aa994592f49f1faae3dc5, type: 2}
  - m_RefCount: 1
    m_Data: {fileID: 11400000, guid: 648536a6ce60f4043ae1a0f18cb7cc72, type: 2}
  - m_RefCount: 1
    m_Data: {fileID: 11400000, guid: ff59e55e1c65684468dddfb53cb70b4b, type: 2}
  - m_RefCount: 1
    m_Data: {fileID: 11400000, guid: 31dabf8b3a0e755438d330a5f40cf149, type: 2}
  - m_RefCount: 1
    m_Data: {fileID: 11400000, guid: c3ed372351c72e047a40bdbcd4671970, type: 2}
  - m_RefCount: 1
    m_Data: {fileID: 11400000, guid: 8f87d8ccf6dc1274da6322c9ba6f3925, type: 2}
  - m_RefCount: 1
    m_Data: {fileID: 11400000, guid: e50d0c688d2d1dd418556bb83551069d, type: 2}
  - m_RefCount: 1
    m_Data: {fileID: 11400000, guid: 92ee7d7130161d542bc1af59933f95b1, type: 2}
  - m_RefCount: 1
    m_Data: {fileID: 11400000, guid: cef44583b7ba40841a346a5910524aad, type: 2}
  - m_RefCount: 1
    m_Data: {fileID: 11400000, guid: 004e596134cecc743950d7d405248cef, type: 2}
  - m_RefCount: 1
    m_Data: {fileID: 11400000, guid: bd2f2ad7fa17f6c4db0a5baf5a851e11, type: 2}
  - m_RefCount: 1
    m_Data: {fileID: 11400000, guid: fd5e872cadaa10041ba181af1ef0f04f, type: 2}
  - m_RefCount: 1
    m_Data: {fileID: 11400000, guid: 392f592a75d52eb4db7c2a1f9c3d1340, type: 2}
  - m_RefCount: 1
    m_Data: {fileID: 11400000, guid: c03f2dff35f357544aa69027781e6a4a, type: 2}
  - m_RefCount: 1
    m_Data: {fileID: 11400000, guid: 9278a269fccb8cc42b262e8d8fd68632, type: 2}
  - m_RefCount: 1
    m_Data: {fileID: 11400000, guid: d43e45ebf81fe9b49b36c06f8b4a716b, type: 2}
  - m_RefCount: 1
    m_Data: {fileID: 11400000, guid: 0c0207e6c95b7244ba66124122a7cffb, type: 2}
  - m_RefCount: 1
    m_Data: {fileID: 11400000, guid: 706f143760c410b4082aa266ac9ba6e2, type: 2}
  - m_RefCount: 1
    m_Data: {fileID: 11400000, guid: e3f6d14f93bfca84ea1b096a55c820da, type: 2}
  - m_RefCount: 1
    m_Data: {fileID: 11400000, guid: bb61bbabb73a611439ce03bc71778e18, type: 2}
  - m_RefCount: 1
    m_Data: {fileID: 11400000, guid: ca27dd559f38d5546ba3a48b05552ce7, type: 2}
  - m_RefCount: 1
    m_Data: {fileID: 11400000, guid: 0f3328d3f5dc5e145afad622d53efe9f, type: 2}
  - m_RefCount: 1
    m_Data: {fileID: 11400000, guid: 4d19be0eda1865442be76f416922cb12, type: 2}
  - m_RefCount: 1
    m_Data: {fileID: 11400000, guid: 6d4ae2617d535fa41bdfe07a23ec1046, type: 2}
  - m_RefCount: 1
    m_Data: {fileID: 11400000, guid: 23b4c985c8679a340984143ccbb76486, type: 2}
  - m_RefCount: 1
    m_Data: {fileID: 11400000, guid: dc0491a0ef220f74d9c0168b5e538341, type: 2}
  - m_RefCount: 1
    m_Data: {fileID: 11400000, guid: a9861bdd3fe3b724bb54e1f143458f10, type: 2}
  - m_RefCount: 1
    m_Data: {fileID: 11400000, guid: 788c9a1a108cdfa46a411be93c176f69, type: 2}
  - m_RefCount: 1
    m_Data: {fileID: 11400000, guid: 96baa555c9fbfea4c9f1ad59f2484639, type: 2}
  - m_RefCount: 1
    m_Data: {fileID: 11400000, guid: 085b70d0735e881499354af842e4c6b5, type: 2}
  - m_RefCount: 1
    m_Data: {fileID: 11400000, guid: c15158e38575cbf4191ce17f33d199aa, type: 2}
  - m_RefCount: 1
    m_Data: {fileID: 11400000, guid: 0af7dad49d02edb439fd11e8cc383e66, type: 2}
  - m_RefCount: 1
    m_Data: {fileID: 11400000, guid: b529aa78022aefb4ea8092aed53a3128, type: 2}
  - m_RefCount: 1
    m_Data: {fileID: 11400000, guid: f5040793b7d97b046befa6dcf77f2f93, type: 2}
  - m_RefCount: 1
    m_Data: {fileID: 11400000, guid: 0bda818aff7a547428e1787c9fdbdae6, type: 2}
  - m_RefCount: 1
    m_Data: {fileID: 11400000, guid: a594e885082e0e5408d9f8ceb42bd452, type: 2}
  - m_RefCount: 1
    m_Data: {fileID: 11400000, guid: 80315e09d5e68ca409c3e9467e9510d9, type: 2}
  - m_RefCount: 1
    m_Data: {fileID: 11400000, guid: 842f9857e56e35847a9631fd0ba96abc, type: 2}
  - m_RefCount: 1
    m_Data: {fileID: 11400000, guid: d20b1800858337c45b387a633a64ceec, type: 2}
  - m_RefCount: 1
    m_Data: {fileID: 11400000, guid: d8e1d5185b5558f42a4e25e48a201f0e, type: 2}
  - m_RefCount: 1
    m_Data: {fileID: 11400000, guid: 609ea502c456853478e7f1e5d40f90aa, type: 2}
  - m_RefCount: 1
    m_Data: {fileID: 11400000, guid: b08ded78e324a8f4ca718ada17c487ac, type: 2}
  - m_RefCount: 1
    m_Data: {fileID: 11400000, guid: bd3ca9617b35e8d4b8e343644c53439a, type: 2}
  - m_RefCount: 1
    m_Data: {fileID: 11400000, guid: 85fe319cf1283ce438a9ab95f50f8c17, type: 2}
  - m_RefCount: 1
    m_Data: {fileID: 11400000, guid: b7a8927cb3717a043b4425e9918d1afa, type: 2}
  - m_RefCount: 1
    m_Data: {fileID: 11400000, guid: af53f739161d62a41bad606ff4f13a45, type: 2}
  - m_RefCount: 1
    m_Data: {fileID: 11400000, guid: a6a6dd5855234f44c92237382a66f5c9, type: 2}
  - m_RefCount: 1
    m_Data: {fileID: 11400000, guid: 41ed32d3a2a6da14798cd5d409cbddaf, type: 2}
  - m_RefCount: 1
    m_Data: {fileID: 11400000, guid: 881e5ce188f2c294da3e40200eeac351, type: 2}
  - m_RefCount: 1
    m_Data: {fileID: 11400000, guid: b566c612381aee44e9418e43817e0381, type: 2}
  - m_RefCount: 1
    m_Data: {fileID: 11400000, guid: f7d9338e1822fbe40a93c6687823012a, type: 2}
  - m_RefCount: 1
    m_Data: {fileID: 11400000, guid: a669a7d2b18c11b49b0cdecccdc92f31, type: 2}
  - m_RefCount: 1
    m_Data: {fileID: 11400000, guid: 9f8d049ed7aebbc4badbf2c0accf009e, type: 2}
  - m_RefCount: 1
    m_Data: {fileID: 11400000, guid: c3bc08fd9d0c1c34cb8721b54b93781b, type: 2}
  - m_RefCount: 1
    m_Data: {fileID: 11400000, guid: 33486c2f301198f4aa6c6502992122f3, type: 2}
  - m_RefCount: 1
    m_Data: {fileID: 11400000, guid: a461bb6b71e97b0408f7909edacde31a, type: 2}
  - m_RefCount: 1
    m_Data: {fileID: 11400000, guid: 5a004fa7af9366b4b85d54bab77fb508, type: 2}
  - m_RefCount: 1
    m_Data: {fileID: 11400000, guid: bf0113a709322dd4f8b410361592302d, type: 2}
  - m_RefCount: 1
    m_Data: {fileID: 11400000, guid: 0e8b68e60023b54468b4432c2da89cb5, type: 2}
  - m_RefCount: 1
    m_Data: {fileID: 11400000, guid: d5a3b184f8239a54194e6785efa0bb14, type: 2}
  - m_RefCount: 1
    m_Data: {fileID: 11400000, guid: d7632026035813c438d80807c7105f8b, type: 2}
  - m_RefCount: 1
    m_Data: {fileID: 11400000, guid: 534a6110df241034798ee1149e1ba2af, type: 2}
  - m_RefCount: 1
    m_Data: {fileID: 11400000, guid: 3f7d05289301ccb40bbf66a1c09a8db9, type: 2}
  - m_RefCount: 1
    m_Data: {fileID: 11400000, guid: cdf953951244d1442a13ebe7f473f9ef, type: 2}
  - m_RefCount: 1
    m_Data: {fileID: 11400000, guid: 2248c82b917e21143a51fd51bc7ddd82, type: 2}
  - m_RefCount: 1
    m_Data: {fileID: 11400000, guid: 29e0b9a594c05f04baa9de6c9a15b0cc, type: 2}
  - m_RefCount: 1
    m_Data: {fileID: 11400000, guid: e1e10ea69eb078c4899d94dfe8d9f742, type: 2}
  - m_RefCount: 1
    m_Data: {fileID: 11400000, guid: b6ce3b0d8fa18224eaa3cefd019d82bc, type: 2}
  - m_RefCount: 1
    m_Data: {fileID: 11400000, guid: 20986b7e8226fc147973259edaf209ee, type: 2}
  - m_RefCount: 1
    m_Data: {fileID: 11400000, guid: 38f5e5a1b48fa2248b11595e78efae4b, type: 2}
  - m_RefCount: 1
    m_Data: {fileID: 11400000, guid: 162c66bd852c6c8479d6645375bf4515, type: 2}
  - m_RefCount: 1
    m_Data: {fileID: 11400000, guid: 948f059ffd011814b98c7b5b5c704dd5, type: 2}
  - m_RefCount: 1
    m_Data: {fileID: 11400000, guid: d239f52a710fbb646b33d0c574a8a510, type: 2}
  - m_RefCount: 1
    m_Data: {fileID: 11400000, guid: 7cff42f002809654ea46668bc025dc30, type: 2}
  - m_RefCount: 1
    m_Data: {fileID: 11400000, guid: e53899dc09db93b4da4d2db3d9e3d08b, type: 2}
  - m_RefCount: 1
    m_Data: {fileID: 11400000, guid: fc4f445d921cde549b1e2c079391b6b9, type: 2}
  - m_RefCount: 1
    m_Data: {fileID: 11400000, guid: abad6063a123de849b279639c91257e0, type: 2}
  - m_RefCount: 1
    m_Data: {fileID: 11400000, guid: 1a349f790fb95ad43b95d50943db4c28, type: 2}
  - m_RefCount: 1
    m_Data: {fileID: 11400000, guid: 2377ac6880479bd45b63b8302ac748f1, type: 2}
  - m_RefCount: 1
    m_Data: {fileID: 11400000, guid: 780117e648da8a7488385681edd05519, type: 2}
  - m_RefCount: 1
    m_Data: {fileID: 11400000, guid: 2a9b0805b68384c46a9e9320851f9973, type: 2}
  - m_RefCount: 1
    m_Data: {fileID: 11400000, guid: 515fd6b437fcbb240ba54d86b7b2f152, type: 2}
  - m_RefCount: 1
    m_Data: {fileID: 11400000, guid: bc7235b1eeb783e42b2c271006429997, type: 2}
  - m_RefCount: 1
    m_Data: {fileID: 11400000, guid: 5229b0afe026b554ba41d8e9b3c6d51d, type: 2}
  - m_RefCount: 1
    m_Data: {fileID: 11400000, guid: 7a5b188e35276ac4698983aae809c694, type: 2}
  - m_RefCount: 1
    m_Data: {fileID: 11400000, guid: b27a96489438a6f4882d7d483478688b, type: 2}
  - m_RefCount: 1
    m_Data: {fileID: 11400000, guid: e1ea14ba7e1ff5648a725c37f678177d, type: 2}
  - m_RefCount: 1
    m_Data: {fileID: 11400000, guid: c4b4e8cd522ac424da8c2192d1ee17ae, type: 2}
  - m_RefCount: 1
    m_Data: {fileID: 11400000, guid: 955d995a69b033a4f99e9d4895d80fc0, type: 2}
  - m_RefCount: 1
    m_Data: {fileID: 11400000, guid: f3362d9864ac36c4e9ad6542f30f02f5, type: 2}
  - m_RefCount: 1
    m_Data: {fileID: 11400000, guid: 53c5ea8fc161f6c4c94ff97a08c29f7e, type: 2}
  - m_RefCount: 1
    m_Data: {fileID: 11400000, guid: 66dc951c9eb52ee41ba2f5f575265e21, type: 2}
  - m_RefCount: 1
    m_Data: {fileID: 11400000, guid: 31f610177c16dd24b8b7850b6a466fe8, type: 2}
  - m_RefCount: 1
    m_Data: {fileID: 11400000, guid: b38c44fa3edc30f4b91ea2e5b4fc26f7, type: 2}
  - m_RefCount: 1
    m_Data: {fileID: 11400000, guid: 909a5d6e08d70ff48bb6d7bfc400e504, type: 2}
  - m_RefCount: 1
    m_Data: {fileID: 11400000, guid: 1f83b704de920374a96d55074295a828, type: 2}
  - m_RefCount: 1
    m_Data: {fileID: 11400000, guid: 729f20cd62dd9034dbf62fae2218a3e3, type: 2}
  - m_RefCount: 1
    m_Data: {fileID: 11400000, guid: f962767ff7ecd70418a3409ae14ba1fb, type: 2}
  - m_RefCount: 1
    m_Data: {fileID: 11400000, guid: fd06ffa5de4cf0c4390b8d92e7797f37, type: 2}
  - m_RefCount: 1
    m_Data: {fileID: 11400000, guid: 17135bd64ee81a04da67472e9d0054d6, type: 2}
  - m_RefCount: 1
    m_Data: {fileID: 11400000, guid: a89cdaacfbf2150469c5b48e7eeb8503, type: 2}
  - m_RefCount: 1
    m_Data: {fileID: 11400000, guid: eb246dcc0b726c74a8b3a9cfbe3a8c4f, type: 2}
  - m_RefCount: 1
    m_Data: {fileID: 11400000, guid: 889d641cbd85c2843811f8aa4cf4529a, type: 2}
  - m_RefCount: 1
    m_Data: {fileID: 11400000, guid: 4f1ca61dba4536741acc5b7df378c972, type: 2}
  - m_RefCount: 1
    m_Data: {fileID: 11400000, guid: f92845fc7d283a349b25619e7e513014, type: 2}
  - m_RefCount: 1
    m_Data: {fileID: 11400000, guid: 12f41c95083b4b04482514d38bbf2dd1, type: 2}
  - m_RefCount: 1
    m_Data: {fileID: 11400000, guid: 8bbbe92b48d5dfc47bfdb4b0f0e3f629, type: 2}
  - m_RefCount: 1
    m_Data: {fileID: 11400000, guid: 3d240717989caf94cab72448fee30b84, type: 2}
  - m_RefCount: 1
    m_Data: {fileID: 11400000, guid: da947eabcabdc5a47a6af5763993901c, type: 2}
  - m_RefCount: 1
    m_Data: {fileID: 11400000, guid: b69cad69d6d466a49953e68dfafe06c5, type: 2}
  - m_RefCount: 1
    m_Data: {fileID: 11400000, guid: d0a1f6defd9936e4192c44bf6f2f953f, type: 2}
  - m_RefCount: 1
    m_Data: {fileID: 11400000, guid: a0d6b916876b0e84d86e1d9db33d2083, type: 2}
  - m_RefCount: 1
    m_Data: {fileID: 11400000, guid: 9ac86f55927d1704aaab610f7fc547d2, type: 2}
  - m_RefCount: 1
    m_Data: {fileID: 11400000, guid: 26974023fca591f4f8f30591ca7131c5, type: 2}
  - m_RefCount: 1
    m_Data: {fileID: 11400000, guid: c2df51717338d164b96412bedbc55cce, type: 2}
  - m_RefCount: 1
    m_Data: {fileID: 11400000, guid: d9b234bb1b3adf24893d3e2fce050160, type: 2}
  - m_RefCount: 1
    m_Data: {fileID: 11400000, guid: ed22c1f3ab219dc418f201f83c5cf8bb, type: 2}
  - m_RefCount: 1
    m_Data: {fileID: 11400000, guid: 86d82dd026b92d74eae2882fff7b471b, type: 2}
  - m_RefCount: 1
    m_Data: {fileID: 11400000, guid: e8b74519661ec284db94ffdbd4bca5b3, type: 2}
  - m_RefCount: 1
    m_Data: {fileID: 11400000, guid: 6c0837082094b20478c2bec611a540bc, type: 2}
  - m_RefCount: 1
    m_Data: {fileID: 11400000, guid: 7c2a710e0f4dbc648a751223d64f0b43, type: 2}
  - m_RefCount: 1
    m_Data: {fileID: 11400000, guid: 5f56b0387b801304aa75298d195f799a, type: 2}
  - m_RefCount: 1
    m_Data: {fileID: 11400000, guid: 285b40ae69e22714d9edaa45e9353ad4, type: 2}
  - m_RefCount: 1
    m_Data: {fileID: 11400000, guid: 430f8dd5a4b822e4c8730aea1bce8c72, type: 2}
  - m_RefCount: 1
    m_Data: {fileID: 11400000, guid: 5f50f89baf06b5d4091830861a07d610, type: 2}
  - m_RefCount: 0
    m_Data: {fileID: 0}
  - m_RefCount: 0
    m_Data: {fileID: 0}
  - m_RefCount: 0
    m_Data: {fileID: 0}
  - m_RefCount: 1
    m_Data: {fileID: 11400000, guid: 1f10147f4b613e0448f0d9d6a3ffac87, type: 2}
  - m_RefCount: 1
    m_Data: {fileID: 11400000, guid: 524538cae6cd05d428efe817fc9f8090, type: 2}
  - m_RefCount: 1
    m_Data: {fileID: 11400000, guid: 2256527ea4d31634ea0e13deb2b1a00a, type: 2}
  - m_RefCount: 1
    m_Data: {fileID: 11400000, guid: 55987d838459d12418bed451cfc9a161, type: 2}
  - m_RefCount: 1
    m_Data: {fileID: 11400000, guid: 25dbe955a2b2910428a965d4b3060a69, type: 2}
  - m_RefCount: 1
    m_Data: {fileID: 11400000, guid: 4d83cc6509fb063488c545ebd2d4390a, type: 2}
  - m_RefCount: 1
    m_Data: {fileID: 11400000, guid: 75f4c2b188169dd46ae5776bef60fa56, type: 2}
  - m_RefCount: 1
    m_Data: {fileID: 11400000, guid: 53b02f3d5bfb0a243ba401482df87e50, type: 2}
  - m_RefCount: 1
    m_Data: {fileID: 11400000, guid: 94fdb07df0d2d154dbe4f38f5c8ff9d4, type: 2}
  - m_RefCount: 1
    m_Data: {fileID: 11400000, guid: 76674964cd4a2f047a6cb06d8398655f, type: 2}
  - m_RefCount: 1
    m_Data: {fileID: 11400000, guid: 626ab89924d27924383744ba186bb733, type: 2}
  - m_RefCount: 1
    m_Data: {fileID: 11400000, guid: 35e6e26f28fff4040b9a44d384f9501a, type: 2}
  - m_RefCount: 1
    m_Data: {fileID: 11400000, guid: f41a7f5cae7160c45ae98c89c3129acc, type: 2}
  - m_RefCount: 1
    m_Data: {fileID: 11400000, guid: 5c615491f22daed42b7bf5e139d6f697, type: 2}
  - m_RefCount: 1
    m_Data: {fileID: 11400000, guid: 716284231c699854987be38296a8eb64, type: 2}
  - m_RefCount: 1
    m_Data: {fileID: 11400000, guid: 683b91e854d538247ae0d2bbb3c4c61f, type: 2}
  - m_RefCount: 1
    m_Data: {fileID: 11400000, guid: 0a923e471a1250d4d998e9c10326a600, type: 2}
  - m_RefCount: 1
    m_Data: {fileID: 11400000, guid: 267cb44bec3f93945aadfdeab64dc293, type: 2}
  - m_RefCount: 1
    m_Data: {fileID: 11400000, guid: b1ef6f053803f8e4e9fe9700b19c1d44, type: 2}
  - m_RefCount: 1
    m_Data: {fileID: 11400000, guid: d00ee8264f0fd614fb83debc15711632, type: 2}
  - m_RefCount: 1
    m_Data: {fileID: 11400000, guid: 0a43e55b447de5c42bfc356181704a17, type: 2}
  - m_RefCount: 1
    m_Data: {fileID: 11400000, guid: f5886aea26702754b90801e5eb184046, type: 2}
  - m_RefCount: 1
    m_Data: {fileID: 11400000, guid: 48b9e1d0230646c468f45da73a89f83c, type: 2}
  - m_RefCount: 1
    m_Data: {fileID: 11400000, guid: 2fb0f20bf2854b44193c95590d470c23, type: 2}
  - m_RefCount: 1
    m_Data: {fileID: 11400000, guid: c3c3ea65143c80448af8c612f1eb152b, type: 2}
  - m_RefCount: 4
    m_Data: {fileID: 11400000, guid: d931e52fe0fba7e4c8ce070c6bcdd6fd, type: 2}
  - m_RefCount: 3
    m_Data: {fileID: 11400000, guid: 84ea266d6b3e89e459da00cca39c77cd, type: 2}
  - m_RefCount: 3
    m_Data: {fileID: 11400000, guid: 26cd80af42c7a9e459f90b97aaa291d9, type: 2}
  - m_RefCount: 2
    m_Data: {fileID: 11400000, guid: cf56921a04232804d8b634875a8e6451, type: 2}
  - m_RefCount: 2
    m_Data: {fileID: 11400000, guid: 3ed2dcc10cf14e741b5ea0f29f481422, type: 2}
  - m_RefCount: 1
    m_Data: {fileID: 11400000, guid: 14542a19f37a1a243976b6505c761b26, type: 2}
  m_TileSpriteArray:
  - m_RefCount: 0
    m_Data: {fileID: 0}
  - m_RefCount: 0
    m_Data: {fileID: 0}
  - m_RefCount: 0
    m_Data: {fileID: 0}
  - m_RefCount: 1
    m_Data: {fileID: -51284339496931667, guid: 8119d62a0eb4025489b03fd1666256d6, type: 3}
  - m_RefCount: 1
    m_Data: {fileID: -5639926808401463146, guid: 8119d62a0eb4025489b03fd1666256d6,
      type: 3}
  - m_RefCount: 1
    m_Data: {fileID: -5545658663483754053, guid: 8119d62a0eb4025489b03fd1666256d6,
      type: 3}
  - m_RefCount: 3
    m_Data: {fileID: -1328167989618590783, guid: 8119d62a0eb4025489b03fd1666256d6,
      type: 3}
  - m_RefCount: 2
    m_Data: {fileID: -1952332526288600033, guid: 8119d62a0eb4025489b03fd1666256d6,
      type: 3}
  - m_RefCount: 2
    m_Data: {fileID: 6001816890011837301, guid: 8119d62a0eb4025489b03fd1666256d6,
      type: 3}
  - m_RefCount: 3
    m_Data: {fileID: -5478547029903275198, guid: 8119d62a0eb4025489b03fd1666256d6,
      type: 3}
  - m_RefCount: 4
    m_Data: {fileID: 1959167082929519403, guid: 8119d62a0eb4025489b03fd1666256d6,
      type: 3}
  - m_RefCount: 1
    m_Data: {fileID: -1756273256962191541, guid: 8119d62a0eb4025489b03fd1666256d6,
      type: 3}
  - m_RefCount: 1
    m_Data: {fileID: -979995662755488274, guid: 8119d62a0eb4025489b03fd1666256d6,
      type: 3}
  - m_RefCount: 2
    m_Data: {fileID: -6365651229818033684, guid: 8119d62a0eb4025489b03fd1666256d6,
      type: 3}
  - m_RefCount: 2
    m_Data: {fileID: 7570925586537524426, guid: 8119d62a0eb4025489b03fd1666256d6,
      type: 3}
  - m_RefCount: 1
    m_Data: {fileID: -5057569893108498721, guid: 8119d62a0eb4025489b03fd1666256d6,
      type: 3}
  - m_RefCount: 1
    m_Data: {fileID: 6213398816653533578, guid: 8119d62a0eb4025489b03fd1666256d6,
      type: 3}
  - m_RefCount: 2
    m_Data: {fileID: 5315398758688241609, guid: 8119d62a0eb4025489b03fd1666256d6,
      type: 3}
  - m_RefCount: 2
    m_Data: {fileID: -8217486432996833290, guid: 8119d62a0eb4025489b03fd1666256d6,
      type: 3}
  - m_RefCount: 2
    m_Data: {fileID: 3696320040783705851, guid: 8119d62a0eb4025489b03fd1666256d6,
      type: 3}
  - m_RefCount: 2
    m_Data: {fileID: -3218716800013171643, guid: 8119d62a0eb4025489b03fd1666256d6,
      type: 3}
  - m_RefCount: 1
    m_Data: {fileID: -3227398766523513492, guid: 8119d62a0eb4025489b03fd1666256d6,
      type: 3}
  - m_RefCount: 1
    m_Data: {fileID: -3926595935788947414, guid: 8119d62a0eb4025489b03fd1666256d6,
      type: 3}
  - m_RefCount: 1
    m_Data: {fileID: -2420752188226759714, guid: 8119d62a0eb4025489b03fd1666256d6,
      type: 3}
  - m_RefCount: 1
    m_Data: {fileID: 1325903388010766133, guid: 8119d62a0eb4025489b03fd1666256d6,
      type: 3}
  - m_RefCount: 1
    m_Data: {fileID: 3763183114126529034, guid: 8119d62a0eb4025489b03fd1666256d6,
      type: 3}
  - m_RefCount: 1
    m_Data: {fileID: -1744924077903546758, guid: 8119d62a0eb4025489b03fd1666256d6,
      type: 3}
  - m_RefCount: 1
    m_Data: {fileID: 8335699032855289105, guid: 8119d62a0eb4025489b03fd1666256d6,
      type: 3}
  - m_RefCount: 1
    m_Data: {fileID: 4289106647791870134, guid: 8119d62a0eb4025489b03fd1666256d6,
      type: 3}
  - m_RefCount: 1
    m_Data: {fileID: 841925456842726782, guid: 8119d62a0eb4025489b03fd1666256d6, type: 3}
  - m_RefCount: 1
    m_Data: {fileID: -5186088730057577991, guid: 8119d62a0eb4025489b03fd1666256d6,
      type: 3}
  - m_RefCount: 1
    m_Data: {fileID: 4922669103703644758, guid: 8119d62a0eb4025489b03fd1666256d6,
      type: 3}
  - m_RefCount: 1
    m_Data: {fileID: -3262732737309894448, guid: 8119d62a0eb4025489b03fd1666256d6,
      type: 3}
  - m_RefCount: 1
    m_Data: {fileID: -1643806010234609748, guid: 8119d62a0eb4025489b03fd1666256d6,
      type: 3}
  - m_RefCount: 1
    m_Data: {fileID: -5170780077330983601, guid: 8119d62a0eb4025489b03fd1666256d6,
      type: 3}
  - m_RefCount: 1
    m_Data: {fileID: 6157231177896671605, guid: 8119d62a0eb4025489b03fd1666256d6,
      type: 3}
  - m_RefCount: 1
    m_Data: {fileID: 6609212054951207781, guid: 8119d62a0eb4025489b03fd1666256d6,
      type: 3}
  - m_RefCount: 1
    m_Data: {fileID: 2807098193163908105, guid: 8119d62a0eb4025489b03fd1666256d6,
      type: 3}
  - m_RefCount: 1
    m_Data: {fileID: -3486735965110688113, guid: 8119d62a0eb4025489b03fd1666256d6,
      type: 3}
  - m_RefCount: 1
    m_Data: {fileID: 4522278578729635573, guid: 8119d62a0eb4025489b03fd1666256d6,
      type: 3}
  - m_RefCount: 1
    m_Data: {fileID: -6917327096380767275, guid: 8119d62a0eb4025489b03fd1666256d6,
      type: 3}
  - m_RefCount: 1
    m_Data: {fileID: -8026708187280950380, guid: 8119d62a0eb4025489b03fd1666256d6,
      type: 3}
  - m_RefCount: 1
    m_Data: {fileID: 4988855289755100532, guid: 8119d62a0eb4025489b03fd1666256d6,
      type: 3}
  - m_RefCount: 1
    m_Data: {fileID: -3245937950374535359, guid: 8119d62a0eb4025489b03fd1666256d6,
      type: 3}
  - m_RefCount: 1
    m_Data: {fileID: -803681684286563498, guid: 825acda5dd6ad714e937a84b4f8cd0c7,
      type: 3}
  - m_RefCount: 1
    m_Data: {fileID: 8248340669295719860, guid: 8119d62a0eb4025489b03fd1666256d6,
      type: 3}
  - m_RefCount: 1
    m_Data: {fileID: 3813390729677077049, guid: 8119d62a0eb4025489b03fd1666256d6,
      type: 3}
  - m_RefCount: 1
    m_Data: {fileID: 5817546464853366936, guid: 8119d62a0eb4025489b03fd1666256d6,
      type: 3}
  - m_RefCount: 1
    m_Data: {fileID: -8665412490588507710, guid: 8119d62a0eb4025489b03fd1666256d6,
      type: 3}
  - m_RefCount: 1
    m_Data: {fileID: -4214956192623734729, guid: 8119d62a0eb4025489b03fd1666256d6,
      type: 3}
  - m_RefCount: 1
    m_Data: {fileID: -2309289145271230396, guid: 8119d62a0eb4025489b03fd1666256d6,
      type: 3}
  - m_RefCount: 1
    m_Data: {fileID: -6938514450845967245, guid: 8119d62a0eb4025489b03fd1666256d6,
      type: 3}
  - m_RefCount: 1
    m_Data: {fileID: -8206000888004772316, guid: 8119d62a0eb4025489b03fd1666256d6,
      type: 3}
  - m_RefCount: 1
    m_Data: {fileID: 6106487488088850769, guid: 8119d62a0eb4025489b03fd1666256d6,
      type: 3}
  - m_RefCount: 1
    m_Data: {fileID: 7459416023153614009, guid: 8119d62a0eb4025489b03fd1666256d6,
      type: 3}
  - m_RefCount: 1
    m_Data: {fileID: 6124380847993358161, guid: 8119d62a0eb4025489b03fd1666256d6,
      type: 3}
  - m_RefCount: 1
    m_Data: {fileID: 828407545970136426, guid: 8119d62a0eb4025489b03fd1666256d6, type: 3}
  - m_RefCount: 1
    m_Data: {fileID: 7052174176445105962, guid: 8119d62a0eb4025489b03fd1666256d6,
      type: 3}
  - m_RefCount: 1
    m_Data: {fileID: -4565294907098612833, guid: 8119d62a0eb4025489b03fd1666256d6,
      type: 3}
  - m_RefCount: 1
    m_Data: {fileID: -3215891047299058848, guid: 8119d62a0eb4025489b03fd1666256d6,
      type: 3}
  - m_RefCount: 1
    m_Data: {fileID: -1120984722340318524, guid: 8119d62a0eb4025489b03fd1666256d6,
      type: 3}
  - m_RefCount: 1
    m_Data: {fileID: 908681368663611530, guid: 8119d62a0eb4025489b03fd1666256d6, type: 3}
  - m_RefCount: 1
    m_Data: {fileID: 8024171292876849080, guid: 8119d62a0eb4025489b03fd1666256d6,
      type: 3}
  - m_RefCount: 1
    m_Data: {fileID: -6648611772981467443, guid: 8119d62a0eb4025489b03fd1666256d6,
      type: 3}
  - m_RefCount: 1
    m_Data: {fileID: 3445980887421281114, guid: 8119d62a0eb4025489b03fd1666256d6,
      type: 3}
  - m_RefCount: 1
    m_Data: {fileID: -6660586966238569058, guid: 8119d62a0eb4025489b03fd1666256d6,
      type: 3}
  - m_RefCount: 1
    m_Data: {fileID: -4337537889234048397, guid: 8119d62a0eb4025489b03fd1666256d6,
      type: 3}
  - m_RefCount: 1
    m_Data: {fileID: 3618817049960357763, guid: 8119d62a0eb4025489b03fd1666256d6,
      type: 3}
  - m_RefCount: 1
    m_Data: {fileID: -2707699682952692650, guid: 8119d62a0eb4025489b03fd1666256d6,
      type: 3}
  - m_RefCount: 1
    m_Data: {fileID: -5148335244601428870, guid: 8119d62a0eb4025489b03fd1666256d6,
      type: 3}
  - m_RefCount: 1
    m_Data: {fileID: -226519381008675237, guid: 8119d62a0eb4025489b03fd1666256d6,
      type: 3}
  - m_RefCount: 1
    m_Data: {fileID: -8847784964608085371, guid: 8119d62a0eb4025489b03fd1666256d6,
      type: 3}
  - m_RefCount: 1
    m_Data: {fileID: 1022674849015060726, guid: 8119d62a0eb4025489b03fd1666256d6,
      type: 3}
  - m_RefCount: 1
    m_Data: {fileID: 833566725490429294, guid: 8119d62a0eb4025489b03fd1666256d6, type: 3}
  - m_RefCount: 1
    m_Data: {fileID: 8887884857053992557, guid: 8119d62a0eb4025489b03fd1666256d6,
      type: 3}
  - m_RefCount: 1
    m_Data: {fileID: 2784611391709589559, guid: 8119d62a0eb4025489b03fd1666256d6,
      type: 3}
  - m_RefCount: 1
    m_Data: {fileID: -1241594804736908579, guid: 8119d62a0eb4025489b03fd1666256d6,
      type: 3}
  - m_RefCount: 1
    m_Data: {fileID: 6905427355057775259, guid: 8119d62a0eb4025489b03fd1666256d6,
      type: 3}
  - m_RefCount: 1
    m_Data: {fileID: -2406223642351720956, guid: 8119d62a0eb4025489b03fd1666256d6,
      type: 3}
  - m_RefCount: 1
    m_Data: {fileID: -2424275822378323679, guid: 8119d62a0eb4025489b03fd1666256d6,
      type: 3}
  - m_RefCount: 1
    m_Data: {fileID: 5504944020422454703, guid: 8119d62a0eb4025489b03fd1666256d6,
      type: 3}
  - m_RefCount: 1
    m_Data: {fileID: -4739382556825272959, guid: 8119d62a0eb4025489b03fd1666256d6,
      type: 3}
  - m_RefCount: 1
    m_Data: {fileID: 3559281568246346074, guid: 8119d62a0eb4025489b03fd1666256d6,
      type: 3}
  - m_RefCount: 1
    m_Data: {fileID: -4469593256831174566, guid: 8119d62a0eb4025489b03fd1666256d6,
      type: 3}
  - m_RefCount: 1
    m_Data: {fileID: 6648257287956491221, guid: 8119d62a0eb4025489b03fd1666256d6,
      type: 3}
  - m_RefCount: 1
    m_Data: {fileID: -8581241943649469804, guid: 8119d62a0eb4025489b03fd1666256d6,
      type: 3}
  - m_RefCount: 1
    m_Data: {fileID: -2475388619877136479, guid: 8119d62a0eb4025489b03fd1666256d6,
      type: 3}
  - m_RefCount: 1
    m_Data: {fileID: 2550340160477924069, guid: 8119d62a0eb4025489b03fd1666256d6,
      type: 3}
  - m_RefCount: 1
    m_Data: {fileID: 3940880888557962878, guid: 8119d62a0eb4025489b03fd1666256d6,
      type: 3}
  - m_RefCount: 1
    m_Data: {fileID: -7897081042141619772, guid: 8119d62a0eb4025489b03fd1666256d6,
      type: 3}
  - m_RefCount: 1
    m_Data: {fileID: 5678913126823304077, guid: 8119d62a0eb4025489b03fd1666256d6,
      type: 3}
  - m_RefCount: 1
    m_Data: {fileID: 5067877160582949956, guid: 8119d62a0eb4025489b03fd1666256d6,
      type: 3}
  - m_RefCount: 1
    m_Data: {fileID: 776602955258648569, guid: 8119d62a0eb4025489b03fd1666256d6, type: 3}
  - m_RefCount: 1
    m_Data: {fileID: 7679162976663739586, guid: 8119d62a0eb4025489b03fd1666256d6,
      type: 3}
  - m_RefCount: 1
    m_Data: {fileID: 7485013080628888385, guid: 8119d62a0eb4025489b03fd1666256d6,
      type: 3}
  - m_RefCount: 1
    m_Data: {fileID: -3324713673831456255, guid: 8119d62a0eb4025489b03fd1666256d6,
      type: 3}
  - m_RefCount: 1
    m_Data: {fileID: -7769554899505568172, guid: 07115c2ada8b321438339ad903079a0a,
      type: 3}
  - m_RefCount: 1
    m_Data: {fileID: 7651449388402414148, guid: 07115c2ada8b321438339ad903079a0a,
      type: 3}
  - m_RefCount: 1
    m_Data: {fileID: -7991103083917676071, guid: 07115c2ada8b321438339ad903079a0a,
      type: 3}
  - m_RefCount: 1
    m_Data: {fileID: -2301660704631018241, guid: 07115c2ada8b321438339ad903079a0a,
      type: 3}
  - m_RefCount: 1
    m_Data: {fileID: 746788953108625889, guid: 07115c2ada8b321438339ad903079a0a, type: 3}
  - m_RefCount: 1
    m_Data: {fileID: -4998596377639977931, guid: 07115c2ada8b321438339ad903079a0a,
      type: 3}
  - m_RefCount: 1
    m_Data: {fileID: -8449963152273637832, guid: 07115c2ada8b321438339ad903079a0a,
      type: 3}
  - m_RefCount: 1
    m_Data: {fileID: 2629592453993299593, guid: 07115c2ada8b321438339ad903079a0a,
      type: 3}
  - m_RefCount: 1
    m_Data: {fileID: 7949097494129202999, guid: 07115c2ada8b321438339ad903079a0a,
      type: 3}
  - m_RefCount: 1
    m_Data: {fileID: 1567530856161977128, guid: 07115c2ada8b321438339ad903079a0a,
      type: 3}
  - m_RefCount: 1
    m_Data: {fileID: -2101069944275269841, guid: 07115c2ada8b321438339ad903079a0a,
      type: 3}
  - m_RefCount: 1
    m_Data: {fileID: -6796689849840194328, guid: 07115c2ada8b321438339ad903079a0a,
      type: 3}
  - m_RefCount: 1
    m_Data: {fileID: -8207595891219536515, guid: 8119d62a0eb4025489b03fd1666256d6,
      type: 3}
  - m_RefCount: 1
    m_Data: {fileID: 9223277661138319834, guid: 8119d62a0eb4025489b03fd1666256d6,
      type: 3}
  - m_RefCount: 1
    m_Data: {fileID: 706415296715486060, guid: 8119d62a0eb4025489b03fd1666256d6, type: 3}
  - m_RefCount: 1
    m_Data: {fileID: -5704102017930621096, guid: 8119d62a0eb4025489b03fd1666256d6,
      type: 3}
  - m_RefCount: 1
    m_Data: {fileID: -5581014604211073090, guid: 8119d62a0eb4025489b03fd1666256d6,
      type: 3}
  - m_RefCount: 1
    m_Data: {fileID: 5088869938105968707, guid: 8119d62a0eb4025489b03fd1666256d6,
      type: 3}
  - m_RefCount: 1
    m_Data: {fileID: -184802132327914681, guid: 8119d62a0eb4025489b03fd1666256d6,
      type: 3}
  - m_RefCount: 1
    m_Data: {fileID: 6334319844627003201, guid: 8119d62a0eb4025489b03fd1666256d6,
      type: 3}
  - m_RefCount: 1
    m_Data: {fileID: 8742908080836159853, guid: 8119d62a0eb4025489b03fd1666256d6,
      type: 3}
  - m_RefCount: 1
    m_Data: {fileID: -1787567498446229596, guid: 8119d62a0eb4025489b03fd1666256d6,
      type: 3}
  - m_RefCount: 1
    m_Data: {fileID: 229766749930088493, guid: 8119d62a0eb4025489b03fd1666256d6, type: 3}
  - m_RefCount: 1
    m_Data: {fileID: 5340024455919221191, guid: 8119d62a0eb4025489b03fd1666256d6,
      type: 3}
  - m_RefCount: 1
    m_Data: {fileID: 7038041196105768542, guid: 8119d62a0eb4025489b03fd1666256d6,
      type: 3}
  - m_RefCount: 1
    m_Data: {fileID: -3302381062975966127, guid: 8119d62a0eb4025489b03fd1666256d6,
      type: 3}
  - m_RefCount: 1
    m_Data: {fileID: 7315585709827169491, guid: 8119d62a0eb4025489b03fd1666256d6,
      type: 3}
  - m_RefCount: 1
    m_Data: {fileID: -8052265882199562198, guid: 8119d62a0eb4025489b03fd1666256d6,
      type: 3}
  - m_RefCount: 1
    m_Data: {fileID: -1922187692766031428, guid: 8119d62a0eb4025489b03fd1666256d6,
      type: 3}
  - m_RefCount: 1
    m_Data: {fileID: -4123229374408135040, guid: 8119d62a0eb4025489b03fd1666256d6,
      type: 3}
  - m_RefCount: 1
    m_Data: {fileID: 7004785150509144947, guid: 8119d62a0eb4025489b03fd1666256d6,
      type: 3}
  - m_RefCount: 1
    m_Data: {fileID: -4594857529024488678, guid: 8119d62a0eb4025489b03fd1666256d6,
      type: 3}
  - m_RefCount: 1
    m_Data: {fileID: 1278663899021052021, guid: 8119d62a0eb4025489b03fd1666256d6,
      type: 3}
  - m_RefCount: 1
    m_Data: {fileID: -729185212280230434, guid: 8119d62a0eb4025489b03fd1666256d6,
      type: 3}
  - m_RefCount: 1
    m_Data: {fileID: -1795052793503864316, guid: 8119d62a0eb4025489b03fd1666256d6,
      type: 3}
  - m_RefCount: 1
    m_Data: {fileID: -8728590639394741444, guid: 8119d62a0eb4025489b03fd1666256d6,
      type: 3}
  - m_RefCount: 1
    m_Data: {fileID: 4027833507658721373, guid: 8119d62a0eb4025489b03fd1666256d6,
      type: 3}
  - m_RefCount: 1
    m_Data: {fileID: 4409212343708671001, guid: 8119d62a0eb4025489b03fd1666256d6,
      type: 3}
  - m_RefCount: 1
    m_Data: {fileID: 954982399158396324, guid: 8119d62a0eb4025489b03fd1666256d6, type: 3}
  - m_RefCount: 1
    m_Data: {fileID: -1089877600490284954, guid: 8119d62a0eb4025489b03fd1666256d6,
      type: 3}
  - m_RefCount: 1
    m_Data: {fileID: 4698132025464637038, guid: 8119d62a0eb4025489b03fd1666256d6,
      type: 3}
  - m_RefCount: 1
    m_Data: {fileID: -5214894868018782086, guid: 8119d62a0eb4025489b03fd1666256d6,
      type: 3}
  - m_RefCount: 1
    m_Data: {fileID: 5486946239269061473, guid: 8119d62a0eb4025489b03fd1666256d6,
      type: 3}
  - m_RefCount: 1
    m_Data: {fileID: -5554142528150207967, guid: 8119d62a0eb4025489b03fd1666256d6,
      type: 3}
  - m_RefCount: 1
    m_Data: {fileID: 851141279089672058, guid: 07115c2ada8b321438339ad903079a0a, type: 3}
  - m_RefCount: 1
    m_Data: {fileID: -3940408566938978028, guid: 07115c2ada8b321438339ad903079a0a,
      type: 3}
  - m_RefCount: 1
    m_Data: {fileID: 5916649071549098560, guid: 8119d62a0eb4025489b03fd1666256d6,
      type: 3}
  - m_RefCount: 1
    m_Data: {fileID: -486501674327991936, guid: 8119d62a0eb4025489b03fd1666256d6,
      type: 3}
  - m_RefCount: 1
    m_Data: {fileID: 4823311348700657674, guid: 8119d62a0eb4025489b03fd1666256d6,
      type: 3}
  - m_RefCount: 1
    m_Data: {fileID: 6628400993149433700, guid: 8119d62a0eb4025489b03fd1666256d6,
      type: 3}
  - m_RefCount: 1
    m_Data: {fileID: -4562390183777966591, guid: 8119d62a0eb4025489b03fd1666256d6,
      type: 3}
  - m_RefCount: 1
    m_Data: {fileID: -883220224384858704, guid: 8119d62a0eb4025489b03fd1666256d6,
      type: 3}
  - m_RefCount: 1
    m_Data: {fileID: 3788263328152703907, guid: 8119d62a0eb4025489b03fd1666256d6,
      type: 3}
  - m_RefCount: 1
    m_Data: {fileID: 667090949410450097, guid: 8119d62a0eb4025489b03fd1666256d6, type: 3}
  - m_RefCount: 1
    m_Data: {fileID: 5407728942527106710, guid: 8119d62a0eb4025489b03fd1666256d6,
      type: 3}
  - m_RefCount: 1
    m_Data: {fileID: 2046955159387557324, guid: 8119d62a0eb4025489b03fd1666256d6,
      type: 3}
  - m_RefCount: 1
    m_Data: {fileID: -8360760241009248728, guid: 8119d62a0eb4025489b03fd1666256d6,
      type: 3}
  - m_RefCount: 1
    m_Data: {fileID: -3572901140697994190, guid: 8119d62a0eb4025489b03fd1666256d6,
      type: 3}
  - m_RefCount: 1
    m_Data: {fileID: 7485556343092440680, guid: 8119d62a0eb4025489b03fd1666256d6,
      type: 3}
  - m_RefCount: 1
    m_Data: {fileID: -1261845380767208346, guid: 8119d62a0eb4025489b03fd1666256d6,
      type: 3}
  - m_RefCount: 1
    m_Data: {fileID: 4160037095934880135, guid: 8119d62a0eb4025489b03fd1666256d6,
      type: 3}
  - m_RefCount: 1
    m_Data: {fileID: -2097261545670595176, guid: 8119d62a0eb4025489b03fd1666256d6,
      type: 3}
  - m_RefCount: 1
    m_Data: {fileID: -2764485132975428521, guid: 8119d62a0eb4025489b03fd1666256d6,
      type: 3}
  - m_RefCount: 1
    m_Data: {fileID: 663924594216565726, guid: 8119d62a0eb4025489b03fd1666256d6, type: 3}
  - m_RefCount: 1
    m_Data: {fileID: 8071047702988485842, guid: 8119d62a0eb4025489b03fd1666256d6,
      type: 3}
  - m_RefCount: 1
    m_Data: {fileID: 6968730789347064125, guid: 8119d62a0eb4025489b03fd1666256d6,
      type: 3}
  - m_RefCount: 1
    m_Data: {fileID: -1192726775871906858, guid: 8119d62a0eb4025489b03fd1666256d6,
      type: 3}
  - m_RefCount: 1
    m_Data: {fileID: 8479278951038091556, guid: 8119d62a0eb4025489b03fd1666256d6,
      type: 3}
  - m_RefCount: 1
    m_Data: {fileID: 6005783306229320536, guid: 8119d62a0eb4025489b03fd1666256d6,
      type: 3}
  - m_RefCount: 1
    m_Data: {fileID: -1236529372429647005, guid: 8119d62a0eb4025489b03fd1666256d6,
      type: 3}
  - m_RefCount: 1
    m_Data: {fileID: 437544231556521719, guid: 8119d62a0eb4025489b03fd1666256d6, type: 3}
  - m_RefCount: 1
    m_Data: {fileID: -7188321656013776205, guid: 8119d62a0eb4025489b03fd1666256d6,
      type: 3}
  - m_RefCount: 1
    m_Data: {fileID: -485445883793672935, guid: 8119d62a0eb4025489b03fd1666256d6,
      type: 3}
  - m_RefCount: 1
    m_Data: {fileID: -8339119234328709019, guid: 8119d62a0eb4025489b03fd1666256d6,
      type: 3}
  - m_RefCount: 1
    m_Data: {fileID: 8996461368899028014, guid: 8119d62a0eb4025489b03fd1666256d6,
      type: 3}
  - m_RefCount: 1
    m_Data: {fileID: 32329915412174620, guid: 8119d62a0eb4025489b03fd1666256d6, type: 3}
  - m_RefCount: 1
    m_Data: {fileID: 4970455668604945465, guid: 8119d62a0eb4025489b03fd1666256d6,
      type: 3}
  - m_RefCount: 1
    m_Data: {fileID: -3688412957284577428, guid: 8119d62a0eb4025489b03fd1666256d6,
      type: 3}
  - m_RefCount: 1
    m_Data: {fileID: 6269875501092376, guid: 8119d62a0eb4025489b03fd1666256d6, type: 3}
  - m_RefCount: 1
    m_Data: {fileID: 625000752612437564, guid: 8119d62a0eb4025489b03fd1666256d6, type: 3}
  - m_RefCount: 1
    m_Data: {fileID: 1477486525246013999, guid: 8119d62a0eb4025489b03fd1666256d6,
      type: 3}
  - m_RefCount: 1
    m_Data: {fileID: -4077105487311358498, guid: 8119d62a0eb4025489b03fd1666256d6,
      type: 3}
  - m_RefCount: 1
    m_Data: {fileID: 1617889586601340874, guid: 8119d62a0eb4025489b03fd1666256d6,
      type: 3}
  - m_RefCount: 1
    m_Data: {fileID: -2793823500088507206, guid: 8119d62a0eb4025489b03fd1666256d6,
      type: 3}
  - m_RefCount: 1
    m_Data: {fileID: -6990661713666686180, guid: 8119d62a0eb4025489b03fd1666256d6,
      type: 3}
  - m_RefCount: 1
    m_Data: {fileID: 8174953191217298539, guid: 8119d62a0eb4025489b03fd1666256d6,
      type: 3}
  - m_RefCount: 1
    m_Data: {fileID: -4490161368584240895, guid: 8119d62a0eb4025489b03fd1666256d6,
      type: 3}
  - m_RefCount: 1
    m_Data: {fileID: 4059724899462125404, guid: 8119d62a0eb4025489b03fd1666256d6,
      type: 3}
  - m_RefCount: 1
    m_Data: {fileID: -3936580006976675314, guid: 8119d62a0eb4025489b03fd1666256d6,
      type: 3}
  - m_RefCount: 1
    m_Data: {fileID: -7741217797375717220, guid: 8119d62a0eb4025489b03fd1666256d6,
      type: 3}
  - m_RefCount: 1
    m_Data: {fileID: 3563103498562616186, guid: a8646d995faa9584b8b4c6587c45c69d,
      type: 3}
  - m_RefCount: 1
    m_Data: {fileID: -5776138633726170209, guid: 8119d62a0eb4025489b03fd1666256d6,
      type: 3}
  - m_RefCount: 1
    m_Data: {fileID: -7553819438216921655, guid: 8119d62a0eb4025489b03fd1666256d6,
      type: 3}
  - m_RefCount: 1
    m_Data: {fileID: -6254919489358955834, guid: 8119d62a0eb4025489b03fd1666256d6,
      type: 3}
  - m_RefCount: 1
    m_Data: {fileID: 9048538056983527669, guid: 8119d62a0eb4025489b03fd1666256d6,
      type: 3}
  - m_RefCount: 1
    m_Data: {fileID: -6548815444928291690, guid: 8119d62a0eb4025489b03fd1666256d6,
      type: 3}
  m_TileMatrixArray:
  - m_RefCount: 204
    m_Data:
      e00: 1
      e01: 0
      e02: 0
      e03: 0
      e10: 0
      e11: 1
      e12: 0
      e13: 0
      e20: 0
      e21: 0
      e22: 1
      e23: 0
      e30: 0
      e31: 0
      e32: 0
      e33: 1
  m_TileColorArray:
  - m_RefCount: 204
    m_Data: {r: 1, g: 1, b: 1, a: 1}
  m_AnimationFrameRate: 1
  m_Color: {r: 1, g: 1, b: 1, a: 1}
  m_Origin: {x: -17, y: -7, z: 0}
  m_Size: {x: 32, y: 18, z: 1}
  m_TileAnchor: {x: 0.5, y: 0.5, z: 0}
  m_TileOrientation: 0
  m_TileOrientationMatrix:
    e00: 1
    e01: 0
    e02: 0
    e03: 0
    e10: 0
    e11: 1
    e12: 0
    e13: 0
    e20: 0
    e21: 0
    e22: 1
    e23: 0
    e30: 0
    e31: 0
    e32: 0
    e33: 1
--- !u!483693784 &6009138105415559344
TilemapRenderer:
  m_ObjectHideFlags: 0
  m_CorrespondingSourceObject: {fileID: 0}
  m_PrefabInstance: {fileID: 0}
  m_PrefabAsset: {fileID: 0}
  m_GameObject: {fileID: 302423528043351215}
  m_Enabled: 0
  m_CastShadows: 0
  m_ReceiveShadows: 0
  m_DynamicOccludee: 0
  m_MotionVectors: 1
  m_LightProbeUsage: 0
  m_ReflectionProbeUsage: 0
  m_RenderingLayerMask: 1
  m_RendererPriority: 0
  m_Materials:
  - {fileID: 10754, guid: 0000000000000000f000000000000000, type: 0}
  m_StaticBatchInfo:
    firstSubMesh: 0
    subMeshCount: 0
  m_StaticBatchRoot: {fileID: 0}
  m_ProbeAnchor: {fileID: 0}
  m_LightProbeVolumeOverride: {fileID: 0}
  m_ScaleInLightmap: 1
  m_ReceiveGI: 1
  m_PreserveUVs: 0
  m_IgnoreNormalsForChartDetection: 0
  m_ImportantGI: 0
  m_StitchLightmapSeams: 1
  m_SelectedEditorRenderState: 0
  m_MinimumChartSize: 4
  m_AutoUVMaxDistance: 0.5
  m_AutoUVMaxAngle: 89
  m_LightmapParameters: {fileID: 0}
  m_SortingLayerID: 0
  m_SortingLayer: 0
  m_SortingOrder: 0
  m_ChunkSize: {x: 32, y: 32, z: 32}
  m_ChunkCullingBounds: {x: 0, y: 0.495, z: 0}
  m_MaxChunkCount: 16
  m_MaxFrameAge: 16
  m_SortOrder: 0
  m_Mode: 0
  m_DetectChunkCullingBounds: 0
  m_MaskInteraction: 0
--- !u!1 &3051739652068626258
GameObject:
  m_ObjectHideFlags: 0
  m_CorrespondingSourceObject: {fileID: 0}
  m_PrefabInstance: {fileID: 0}
  m_PrefabAsset: {fileID: 0}
  serializedVersion: 6
  m_Component:
  - component: {fileID: 4375931779404497145}
  - component: {fileID: 3290940867548930928}
  m_Layer: 31
  m_Name: Decors
  m_TagString: Untagged
  m_Icon: {fileID: 0}
  m_NavMeshLayer: 0
  m_StaticEditorFlags: 0
  m_IsActive: 1
--- !u!4 &4375931779404497145
Transform:
  m_ObjectHideFlags: 0
  m_CorrespondingSourceObject: {fileID: 0}
  m_PrefabInstance: {fileID: 0}
  m_PrefabAsset: {fileID: 0}
  m_GameObject: {fileID: 3051739652068626258}
  m_LocalRotation: {x: 0, y: 0, z: 0, w: 1}
  m_LocalPosition: {x: 0, y: 0, z: 0}
  m_LocalScale: {x: 1, y: 1, z: 1}
  m_Children:
  - {fileID: 4849425124784533263}
  m_Father: {fileID: 0}
  m_RootOrder: 0
  m_LocalEulerAnglesHint: {x: 0, y: 0, z: 0}
--- !u!156049354 &3290940867548930928
Grid:
  m_ObjectHideFlags: 0
  m_CorrespondingSourceObject: {fileID: 0}
  m_PrefabInstance: {fileID: 0}
  m_PrefabAsset: {fileID: 0}
  m_GameObject: {fileID: 3051739652068626258}
  m_Enabled: 1
  m_CellSize: {x: 1, y: 1, z: 0}
  m_CellGap: {x: 0, y: 0, z: 0}
  m_CellLayout: 0
  m_CellSwizzle: 0
--- !u!114 &-1550394987459722998
MonoBehaviour:
  m_ObjectHideFlags: 0
  m_CorrespondingSourceObject: {fileID: 0}
  m_PrefabInstance: {fileID: 0}
  m_PrefabAsset: {fileID: 0}
  m_GameObject: {fileID: 0}
  m_Enabled: 1
  m_EditorHideFlags: 0
  m_Script: {fileID: 12395, guid: 0000000000000000e000000000000000, type: 0}
  m_Name: Palette Settings
  m_EditorClassIdentifier: 
  cellSizing: 0
